EESchema Schematic File Version 5
LIBS:IoDachlukeV2-cache
EELAYER 29 0
EELAYER END
$Descr A4 11693 8268
encoding utf-8
Sheet 4 4
Title ""
Date ""
Rev ""
Comp ""
Comment1 ""
Comment2 ""
Comment3 ""
Comment4 ""
$EndDescr
$Comp
L power:GND #PWR08
U 1 1 5B33D0FF
P 7500 4550
F 0 "#PWR08" H 7500 4300 50  0001 C CNN
F 1 "GND" H 7505 4377 50  0000 C CNN
F 2 "" H 7500 4550 50  0001 C CNN
F 3 "" H 7500 4550 50  0001 C CNN
	1    7500 4550
	1    0    0    -1  
$EndComp
$Comp
L power:GND #PWR011
U 1 1 5B33D12D
P 7700 4550
F 0 "#PWR011" H 7700 4300 50  0001 C CNN
F 1 "GND" H 7705 4377 50  0000 C CNN
F 2 "" H 7700 4550 50  0001 C CNN
F 3 "" H 7700 4550 50  0001 C CNN
	1    7700 4550
	1    0    0    -1  
$EndComp
$Comp
L power:+3.3V #PWR016
U 1 1 5B33F059
P 8500 2000
F 0 "#PWR016" H 8500 1850 50  0001 C CNN
F 1 "+3.3V" H 8515 2173 50  0000 C CNN
F 2 "" H 8500 2000 50  0001 C CNN
F 3 "" H 8500 2000 50  0001 C CNN
	1    8500 2000
	1    0    0    -1  
$EndComp
$Comp
L Device:C C406
U 1 1 5B33F0B1
P 8400 4600
F 0 "C406" H 8100 4650 50  0000 L CNN
F 1 "10u" H 8100 4550 50  0000 L CNN
F 2 "Capacitor_SMD:C_0805_2012Metric_Pad1.15x1.40mm_HandSolder" H 8438 4450 50  0001 C CNN
F 3 "~" H 8400 4600 50  0001 C CNN
	1    8400 4600
	1    0    0    -1  
$EndComp
$Comp
L power:GND #PWR014
U 1 1 5B33F0EF
P 8400 4750
F 0 "#PWR014" H 8400 4500 50  0001 C CNN
F 1 "GND" H 8405 4577 50  0000 C CNN
F 2 "" H 8400 4750 50  0001 C CNN
F 3 "" H 8400 4750 50  0001 C CNN
	1    8400 4750
	1    0    0    -1  
$EndComp
Wire Wire Line
	8400 4450 8400 4350
Wire Wire Line
	8400 4350 8300 4350
$Comp
L Device:R R409
U 1 1 5B33F3B9
P 8700 4600
F 0 "R409" H 8770 4646 50  0000 L CNN
F 1 "2k2" H 8770 4555 50  0000 L CNN
F 2 "Resistor_SMD:R_0603_1608Metric_Pad1.05x0.95mm_HandSolder" V 8630 4600 50  0001 C CNN
F 3 "~" H 8700 4600 50  0001 C CNN
	1    8700 4600
	1    0    0    -1  
$EndComp
Wire Wire Line
	8700 4450 8700 4150
Wire Wire Line
	8700 4150 8300 4150
$Comp
L power:GND #PWR017
U 1 1 5B33F6CE
P 8700 4750
F 0 "#PWR017" H 8700 4500 50  0001 C CNN
F 1 "GND" H 8705 4577 50  0000 C CNN
F 2 "" H 8700 4750 50  0001 C CNN
F 3 "" H 8700 4750 50  0001 C CNN
	1    8700 4750
	1    0    0    -1  
$EndComp
$Comp
L power:GND #PWR013
U 1 1 5B34067D
P 8400 3950
F 0 "#PWR013" H 8400 3700 50  0001 C CNN
F 1 "GND" H 8405 3777 50  0000 C CNN
F 2 "" H 8400 3950 50  0001 C CNN
F 3 "" H 8400 3950 50  0001 C CNN
	1    8400 3950
	1    0    0    -1  
$EndComp
Wire Wire Line
	8400 3350 8300 3350
Wire Wire Line
	8300 3850 8400 3850
Connection ~ 8400 3850
Wire Wire Line
	8400 3850 8400 3350
Wire Wire Line
	8300 3550 8500 3550
Wire Wire Line
	8500 3550 8500 3050
Wire Wire Line
	8300 3050 8500 3050
Connection ~ 8500 3050
Wire Wire Line
	8500 2450 8500 3050
Wire Wire Line
	7700 2550 7700 2450
Wire Wire Line
	7700 2450 8500 2450
Wire Wire Line
	8500 2000 8500 2100
Connection ~ 8500 2450
Wire Wire Line
	7500 2550 7500 2450
Wire Wire Line
	7500 2450 7700 2450
Connection ~ 7700 2450
Wire Wire Line
	8300 3150 8600 3150
Wire Wire Line
	8300 3250 8600 3250
Wire Wire Line
	8300 3650 8600 3650
Wire Wire Line
	8300 3750 8600 3750
Text GLabel 8600 3150 2    50   Input ~ 0
TPIN+
Text GLabel 8600 3250 2    50   Input ~ 0
TPIN-
Text GLabel 8600 3650 2    50   Input ~ 0
TPOUT+
Text GLabel 8600 3750 2    50   Input ~ 0
TPOUT-
$Comp
L power:GND #PWR06
U 1 1 5B346AA2
P 6800 4550
F 0 "#PWR06" H 6800 4300 50  0001 C CNN
F 1 "GND" H 6805 4377 50  0000 C CNN
F 2 "" H 6800 4550 50  0001 C CNN
F 3 "" H 6800 4550 50  0001 C CNN
	1    6800 4550
	1    0    0    -1  
$EndComp
Wire Wire Line
	6800 4550 6800 4150
Wire Wire Line
	6800 4150 6900 4150
$Comp
L power:+3.3V #PWR05
U 1 1 5B347704
P 6800 3650
F 0 "#PWR05" H 6800 3500 50  0001 C CNN
F 1 "+3.3V" H 6700 3800 50  0000 C CNN
F 2 "" H 6800 3650 50  0001 C CNN
F 3 "" H 6800 3650 50  0001 C CNN
	1    6800 3650
	1    0    0    -1  
$EndComp
Wire Wire Line
	6800 3650 6800 3750
Wire Wire Line
	6800 3750 6900 3750
Wire Wire Line
	6900 3850 6700 3850
Wire Wire Line
	6900 4050 6300 4050
Wire Wire Line
	6300 4050 6300 3850
Wire Wire Line
	6300 4050 6300 4150
Connection ~ 6300 4050
Wire Wire Line
	6700 4150 6700 3850
Connection ~ 6700 3850
Wire Wire Line
	6700 3850 6600 3850
$Comp
L power:GND #PWR04
U 1 1 5B34F8FE
P 6700 4550
F 0 "#PWR04" H 6700 4300 50  0001 C CNN
F 1 "GND" H 6705 4377 50  0000 C CNN
F 2 "" H 6700 4550 50  0001 C CNN
F 3 "" H 6700 4550 50  0001 C CNN
	1    6700 4550
	1    0    0    -1  
$EndComp
$Comp
L power:GND #PWR01
U 1 1 5B34F929
P 6300 4550
F 0 "#PWR01" H 6300 4300 50  0001 C CNN
F 1 "GND" H 6305 4377 50  0000 C CNN
F 2 "" H 6300 4550 50  0001 C CNN
F 3 "" H 6300 4550 50  0001 C CNN
	1    6300 4550
	1    0    0    -1  
$EndComp
Wire Wire Line
	6300 4550 6300 4450
Wire Wire Line
	6700 4450 6700 4550
$Comp
L Device:R R403
U 1 1 5B35F2BF
P 2950 3900
F 0 "R403" H 3020 3946 50  0000 L CNN
F 1 "75" H 3020 3855 50  0000 L CNN
F 2 "Resistor_SMD:R_0603_1608Metric_Pad1.05x0.95mm_HandSolder" V 2880 3900 50  0001 C CNN
F 3 "~" H 2950 3900 50  0001 C CNN
	1    2950 3900
	1    0    0    -1  
$EndComp
$Comp
L Device:R R402
U 1 1 5B35F32B
P 2850 3900
F 0 "R402" H 2781 3854 50  0000 R CNN
F 1 "75" H 2781 3945 50  0000 R CNN
F 2 "Resistor_SMD:R_0603_1608Metric_Pad1.05x0.95mm_HandSolder" V 2780 3900 50  0001 C CNN
F 3 "~" H 2850 3900 50  0001 C CNN
	1    2850 3900
	1    0    0    1   
$EndComp
Wire Wire Line
	2850 3750 2850 3250
Wire Wire Line
	2850 3250 3050 3250
Wire Wire Line
	3050 3550 2950 3550
Wire Wire Line
	2950 3550 2950 3750
Wire Wire Line
	2150 3050 2250 3050
Wire Wire Line
	2250 3050 2250 2950
Wire Wire Line
	2250 2950 2150 2950
Wire Wire Line
	2150 3550 2450 3550
Wire Wire Line
	2150 3350 2250 3350
Wire Wire Line
	2250 3350 2250 3250
Wire Wire Line
	2250 3250 2150 3250
$Comp
L Device:C C403
U 1 1 5B378C29
P 2300 4150
F 0 "C403" V 2450 4100 50  0000 C CNN
F 1 "1n 2kV" V 2550 4150 50  0000 C CNN
F 2 "Capacitor_SMD:C_1812_4532Metric_Pad1.30x3.40mm_HandSolder" H 2338 4000 50  0001 C CNN
F 3 "~" H 2300 4150 50  0001 C CNN
	1    2300 4150
	0    1    1    0   
$EndComp
Wire Wire Line
	2950 4150 2950 4050
Wire Wire Line
	2850 4050 2850 4150
Connection ~ 2850 4150
Wire Wire Line
	2850 4150 2950 4150
$Comp
L Device:C C404
U 1 1 5B381D52
P 4150 3900
F 0 "C404" H 4400 3850 50  0000 R CNN
F 1 "100n" H 4400 3950 50  0000 R CNN
F 2 "Capacitor_SMD:C_0603_1608Metric_Pad1.05x0.95mm_HandSolder" H 4188 3750 50  0001 C CNN
F 3 "~" H 4150 3900 50  0001 C CNN
	1    4150 3900
	-1   0    0    1   
$EndComp
Wire Wire Line
	4150 3750 4150 3550
Wire Wire Line
	4150 3550 4050 3550
$Comp
L power:GND #PWR015
U 1 1 5B384589
P 4150 4050
F 0 "#PWR015" H 4150 3800 50  0001 C CNN
F 1 "GND" H 4155 3877 50  0000 C CNN
F 2 "" H 4150 4050 50  0001 C CNN
F 3 "" H 4150 4050 50  0001 C CNN
	1    4150 4050
	1    0    0    -1  
$EndComp
$Comp
L Device:R R404
U 1 1 5B395C6C
P 4350 2900
F 0 "R404" H 4281 2854 50  0000 R CNN
F 1 "51" H 4281 2945 50  0000 R CNN
F 2 "Resistor_SMD:R_0603_1608Metric_Pad1.05x0.95mm_HandSolder" V 4280 2900 50  0001 C CNN
F 3 "~" H 4350 2900 50  0001 C CNN
	1    4350 2900
	1    0    0    1   
$EndComp
$Comp
L Device:R R405
U 1 1 5B395CE8
P 4450 2900
F 0 "R405" H 4520 2946 50  0000 L CNN
F 1 "51" H 4520 2855 50  0000 L CNN
F 2 "Resistor_SMD:R_0603_1608Metric_Pad1.05x0.95mm_HandSolder" V 4380 2900 50  0001 C CNN
F 3 "~" H 4450 2900 50  0001 C CNN
	1    4450 2900
	1    0    0    -1  
$EndComp
Wire Wire Line
	4050 3450 4350 3450
Wire Wire Line
	4350 3450 4350 3050
Wire Wire Line
	4450 3050 4450 3650
Wire Wire Line
	4450 3650 4050 3650
$Comp
L Device:R R406
U 1 1 5B3A28C0
P 4600 3900
F 0 "R406" H 4531 3854 50  0000 R CNN
F 1 "51" H 4531 3945 50  0000 R CNN
F 2 "Resistor_SMD:R_0603_1608Metric_Pad1.05x0.95mm_HandSolder" V 4530 3900 50  0001 C CNN
F 3 "~" H 4600 3900 50  0001 C CNN
	1    4600 3900
	1    0    0    1   
$EndComp
$Comp
L Device:R R407
U 1 1 5B3A2916
P 4700 3900
F 0 "R407" H 4770 3946 50  0000 L CNN
F 1 "51" H 4770 3855 50  0000 L CNN
F 2 "Resistor_SMD:R_0603_1608Metric_Pad1.05x0.95mm_HandSolder" V 4630 3900 50  0001 C CNN
F 3 "~" H 4700 3900 50  0001 C CNN
	1    4700 3900
	1    0    0    -1  
$EndComp
Wire Wire Line
	4050 3350 4600 3350
$Comp
L Device:C C405
U 1 1 5B3A81FD
P 4600 4400
F 0 "C405" V 4750 4350 50  0000 C CNN
F 1 "100n" V 4850 4400 50  0000 C CNN
F 2 "Capacitor_SMD:C_0603_1608Metric_Pad1.05x0.95mm_HandSolder" H 4638 4250 50  0001 C CNN
F 3 "~" H 4600 4400 50  0001 C CNN
	1    4600 4400
	-1   0    0    1   
$EndComp
$Comp
L power:GND #PWR020
U 1 1 5B3AB44E
P 4600 4550
F 0 "#PWR020" H 4600 4300 50  0001 C CNN
F 1 "GND" H 4605 4377 50  0000 C CNN
F 2 "" H 4600 4550 50  0001 C CNN
F 3 "" H 4600 4550 50  0001 C CNN
	1    4600 4550
	1    0    0    -1  
$EndComp
Wire Wire Line
	4600 4050 4600 4150
Wire Wire Line
	4600 4150 4700 4150
Wire Wire Line
	4700 4150 4700 4050
Connection ~ 4600 4150
Wire Wire Line
	4600 4150 4600 4250
Wire Wire Line
	4600 3750 4600 3350
Wire Wire Line
	4050 3150 4700 3150
Wire Wire Line
	4350 2750 4350 2650
Wire Wire Line
	4350 2650 4450 2650
Wire Wire Line
	4450 2650 4450 2750
$Comp
L power:GND #PWR07
U 1 1 5B3C33A0
P 2350 3050
F 0 "#PWR07" H 2350 2800 50  0001 C CNN
F 1 "GND" V 2355 2922 50  0000 R CNN
F 2 "" H 2350 3050 50  0001 C CNN
F 3 "" H 2350 3050 50  0001 C CNN
	1    2350 3050
	0    -1   -1   0   
$EndComp
Wire Wire Line
	2350 3050 2250 3050
Connection ~ 2250 3050
Wire Wire Line
	2650 3250 2250 3250
Connection ~ 2250 3250
$Comp
L power:+3.3V #PWR012
U 1 1 5B3EBFD8
P 3650 2550
F 0 "#PWR012" H 3650 2400 50  0001 C CNN
F 1 "+3.3V" H 3665 2723 50  0000 C CNN
F 2 "" H 3650 2550 50  0001 C CNN
F 3 "" H 3650 2550 50  0001 C CNN
	1    3650 2550
	1    0    0    -1  
$EndComp
Wire Wire Line
	3650 2550 3650 2650
Wire Wire Line
	3650 2650 3750 2650
Wire Wire Line
	4050 2650 4150 2650
Connection ~ 4350 2650
Wire Wire Line
	4800 3650 4450 3650
Connection ~ 4450 3650
Wire Wire Line
	4600 3350 4800 3350
Connection ~ 4600 3350
Wire Wire Line
	4800 3150 4700 3150
Connection ~ 4700 3150
Text GLabel 4800 3350 2    50   Input ~ 0
TPIN+
Text GLabel 4800 3150 2    50   Input ~ 0
TPIN-
Text GLabel 4800 3650 2    50   Input ~ 0
TPOUT+
Wire Wire Line
	4350 3450 4800 3450
Wire Wire Line
	4700 3150 4700 3750
Connection ~ 4350 3450
Text GLabel 4800 3450 2    50   Input ~ 0
TPOUT-
$Comp
L Device:R R408
U 1 1 5B3ED8BA
P 6800 2500
F 0 "R408" H 6870 2546 50  0000 L CNN
F 1 "10k" H 6870 2455 50  0000 L CNN
F 2 "Resistor_SMD:R_0603_1608Metric_Pad1.05x0.95mm_HandSolder" V 6730 2500 50  0001 C CNN
F 3 "~" H 6800 2500 50  0001 C CNN
	1    6800 2500
	1    0    0    -1  
$EndComp
$Comp
L power:+3.3V #PWR038
U 1 1 5B3EDF25
P 6800 2350
F 0 "#PWR038" H 6800 2200 50  0001 C CNN
F 1 "+3.3V" H 6815 2523 50  0000 C CNN
F 2 "" H 6800 2350 50  0001 C CNN
F 3 "" H 6800 2350 50  0001 C CNN
	1    6800 2350
	1    0    0    -1  
$EndComp
Wire Wire Line
	6800 2650 6800 2750
Wire Wire Line
	6800 2750 6900 2750
Wire Wire Line
	4150 2650 4150 3550
Connection ~ 4150 2650
Wire Wire Line
	4150 2650 4350 2650
Connection ~ 4150 3550
$Comp
L Device:R R410
U 1 1 5B570D2E
P 8850 2850
F 0 "R410" V 8900 3000 50  0000 L CNN
F 1 "330" V 8850 2800 50  0000 L CNN
F 2 "Resistor_SMD:R_0603_1608Metric_Pad1.05x0.95mm_HandSolder" V 8780 2850 50  0001 C CNN
F 3 "~" H 8850 2850 50  0001 C CNN
	1    8850 2850
	0    -1   -1   0   
$EndComp
Wire Wire Line
	8700 2850 8300 2850
Wire Wire Line
	9000 2850 9100 2850
Wire Wire Line
	9100 2850 9100 2950
$Comp
L Device:LED D402
U 1 1 5B589637
P 9100 3100
F 0 "D402" V 9138 2982 50  0000 R CNN
F 1 "Amber" V 9047 2982 50  0000 R CNN
F 2 "LED_SMD:LED_1206_3216Metric_Pad1.42x1.75mm_HandSolder" H 9100 3100 50  0001 C CNN
F 3 "~" H 9100 3100 50  0001 C CNN
	1    9100 3100
	0    -1   -1   0   
$EndComp
$Comp
L power:GND #PWR09
U 1 1 5B589DAF
P 9100 3250
F 0 "#PWR09" H 9100 3000 50  0001 C CNN
F 1 "GND" H 9105 3077 50  0000 C CNN
F 2 "" H 9100 3250 50  0001 C CNN
F 3 "" H 9100 3250 50  0001 C CNN
	1    9100 3250
	1    0    0    -1  
$EndComp
$Comp
L Interface_Ethernet:ENC28J60x-SO U401
U 1 1 5B58A1C5
P 7600 3550
F 0 "U401" H 7250 4850 50  0000 C CNN
F 1 "ENC28J60x-SO" H 7300 4750 50  0000 C CNN
F 2 "Package_SO:SOIC-28W_7.5x17.9mm_P1.27mm" H 8750 2600 50  0001 C CIN
F 3 "http://ww1.microchip.com/downloads/en/devicedoc/39662e.pdf" H 7600 3550 50  0001 C CNN
	1    7600 3550
	1    0    0    -1  
$EndComp
$Comp
L IoDachlukeV2:SM51108PEL T401
U 1 1 5D034149
P 2800 3150
F 0 "T401" H 2050 2835 50  0000 C CNN
F 1 "SM51108PEL" H 2050 2926 50  0000 C CNN
F 2 "Package_SO:SOIC-16W_7.5x12.8mm_P1.27mm" H 2800 3650 50  0001 C CNN
F 3 "~" H 2900 3750 50  0001 C CNN
	1    2800 3150
	-1   0    0    1   
$EndComp
$Comp
L Connector:8P8C_Shielded J401
U 1 1 5D0363F8
P 1750 3350
F 0 "J401" H 1807 4017 50  0000 C CNN
F 1 "8P8C_Shielded" H 1807 3926 50  0000 C CNN
F 2 "IoDachlukeV2:RJLSE-4X381-01" V 1750 3375 50  0001 C CNN
F 3 "http://www.farnell.com/datasheets/2004043.pdf" V 1750 3375 50  0001 C CNN
	1    1750 3350
	1    0    0    -1  
$EndComp
Wire Wire Line
	1750 3850 1750 4150
Wire Wire Line
	1750 4150 2150 4150
$Comp
L Device:R R401
U 1 1 5D03896C
P 8850 2750
F 0 "R401" V 8900 2900 50  0000 L CNN
F 1 "330" V 8850 2700 50  0000 L CNN
F 2 "Resistor_SMD:R_0603_1608Metric_Pad1.05x0.95mm_HandSolder" V 8780 2750 50  0001 C CNN
F 3 "~" H 8850 2750 50  0001 C CNN
	1    8850 2750
	0    -1   -1   0   
$EndComp
Wire Wire Line
	8700 2750 8300 2750
$Comp
L power:GND #PWR0138
U 1 1 5D038D78
P 9550 3250
F 0 "#PWR0138" H 9550 3000 50  0001 C CNN
F 1 "GND" H 9555 3077 50  0000 C CNN
F 2 "" H 9550 3250 50  0001 C CNN
F 3 "" H 9550 3250 50  0001 C CNN
	1    9550 3250
	1    0    0    -1  
$EndComp
$Comp
L Device:LED D401
U 1 1 5D038D84
P 9550 3100
F 0 "D401" V 9588 2982 50  0000 R CNN
F 1 "Green" V 9497 2982 50  0000 R CNN
F 2 "LED_SMD:LED_1206_3216Metric_Pad1.42x1.75mm_HandSolder" H 9550 3100 50  0001 C CNN
F 3 "~" H 9550 3100 50  0001 C CNN
	1    9550 3100
	0    -1   -1   0   
$EndComp
Wire Wire Line
	9550 2950 9550 2750
Wire Wire Line
	9550 2750 9000 2750
Wire Wire Line
	8400 3850 8400 3950
Wire Wire Line
	2150 3650 3050 3650
Wire Wire Line
	2150 3150 3050 3150
Wire Wire Line
	2450 4150 2850 4150
Wire Wire Line
	2150 3450 2350 3450
Wire Wire Line
	2350 3350 2350 3450
Wire Wire Line
	2350 3350 3050 3350
Wire Wire Line
	2450 3450 2450 3550
Wire Wire Line
	2450 3450 3050 3450
Wire Wire Line
	2650 3250 2650 3050
Wire Wire Line
	2650 3050 2750 3050
Text HLabel 2750 3050 2    50   Input ~ 0
POE+
Text HLabel 6900 2950 0    50   Input ~ 0
ETH_MOSI
Text HLabel 6900 3050 0    50   Input ~ 0
ETH_MISO
Text HLabel 6900 3150 0    50   Input ~ 0
ETH_SCK
Text HLabel 6900 3250 0    50   Input ~ 0
ETH_~CS
$Comp
L Device:C C401
U 1 1 5D1352F5
P 6300 4300
F 0 "C401" H 6185 4254 50  0000 R CNN
F 1 "18p" H 6185 4345 50  0000 R CNN
F 2 "Capacitor_SMD:C_0603_1608Metric_Pad1.05x0.95mm_HandSolder" H 6338 4150 50  0001 C CNN
F 3 "~" H 6300 4300 50  0001 C CNN
	1    6300 4300
	1    0    0    1   
$EndComp
$Comp
L Device:C C402
U 1 1 5D138FE8
P 6700 4300
F 0 "C402" H 6585 4254 50  0000 R CNN
F 1 "18p" H 6585 4345 50  0000 R CNN
F 2 "Capacitor_SMD:C_0603_1608Metric_Pad1.05x0.95mm_HandSolder" H 6738 4150 50  0001 C CNN
F 3 "~" H 6700 4300 50  0001 C CNN
	1    6700 4300
	1    0    0    1   
$EndComp
$Comp
L IoDachlukeV2:FA328 Y401
U 1 1 5D1396FD
P 6450 3850
F 0 "Y401" H 6300 4100 50  0000 L CNN
F 1 "25MHz FA328" H 6300 4000 50  0000 L CNN
F 2 "Crystal:Crystal_SMD_SeikoEpson_FA238V-4Pin_3.2x2.5mm_HandSoldering" H 6450 3850 50  0001 C CNN
F 3 "https://www.mouser.at/datasheet/2/96/008-0360-0-786290.pdf" H 6450 3850 50  0001 C CNN
	1    6450 3850
	1    0    0    -1  
$EndComp
$Comp
L power:GND #PWR02
U 1 1 5D210B46
P 1750 4250
F 0 "#PWR02" H 1750 4000 50  0001 C CNN
F 1 "GND" H 1755 4077 50  0000 C CNN
F 2 "" H 1750 4250 50  0001 C CNN
F 3 "" H 1750 4250 50  0001 C CNN
	1    1750 4250
	1    0    0    -1  
$EndComp
Wire Wire Line
	1750 4250 1750 4150
Connection ~ 1750 4150
$Comp
L power:GND #PWR0401
U 1 1 5D407FD2
P 8750 2500
F 0 "#PWR0401" H 8750 2250 50  0001 C CNN
F 1 "GND" H 8755 2327 50  0000 C CNN
F 2 "" H 8750 2500 50  0001 C CNN
F 3 "" H 8750 2500 50  0001 C CNN
	1    8750 2500
	1    0    0    -1  
$EndComp
$Comp
L Device:C C407
U 1 1 5D407FDE
P 8750 2350
F 0 "C407" H 8650 2150 50  0000 C CNN
F 1 "100n" H 8650 2250 50  0000 C CNN
F 2 "Capacitor_SMD:C_0603_1608Metric_Pad1.05x0.95mm_HandSolder" H 8788 2200 50  0001 C CNN
F 3 "~" H 8750 2350 50  0001 C CNN
	1    8750 2350
	-1   0    0    1   
$EndComp
Wire Wire Line
	8750 2200 8750 2100
Wire Wire Line
	8750 2100 8500 2100
Connection ~ 8500 2100
Wire Wire Line
	8500 2100 8500 2450
$Comp
L Device:Ferrite_Bead FB401
U 1 1 5D43729E
P 3900 2650
F 0 "FB401" V 3626 2650 50  0000 C CNN
F 1 "BK2125HM601-T 600Ω 0.5A" V 3717 2650 50  0000 C CNN
F 2 "Inductor_SMD:L_0805_2012Metric_Pad1.15x1.40mm_HandSolder" V 3830 2650 50  0001 C CNN
F 3 "https://www.mouser.de/datasheet/2/396/mlci07_e-1396618.pdf" H 3900 2650 50  0001 C CNN
	1    3900 2650
	0    1    1    0   
$EndComp
$EndSCHEMATC
