EESchema Schematic File Version 5
LIBS:IoDachlukeV2-cache
EELAYER 29 0
EELAYER END
$Descr A4 11693 8268
encoding utf-8
Sheet 1 4
Title ""
Date ""
Rev ""
Comp ""
Comment1 ""
Comment2 ""
Comment3 ""
Comment4 ""
$EndDescr
$Sheet
S 5650 1100 1200 1200
U 5CFD95E5
F0 "L6482H" 50
F1 "L6482H.sch" 50
F2 "stbyreset" I L 5650 1750 50 
F3 "flag" I L 5650 1850 50 
F4 "busysync" I L 5650 1950 50 
F5 "stck" I L 5650 2050 50 
F6 "sw" I L 5650 2150 50 
F7 "oscin" I R 6850 1200 50 
F8 "oscout" I R 6850 1300 50 
F9 "OUTA1" I R 6850 1850 50 
F10 "OUTA2" I R 6850 1950 50 
F11 "OUTB1" I R 6850 2050 50 
F12 "OUTB2" I R 6850 2150 50 
F13 "STEPPER_SCK" I L 5650 1300 50 
F14 "STEPPER_MOSI" I L 5650 1400 50 
F15 "STEPPER_MISO" I L 5650 1500 50 
F16 "STEPPER_~CS" I L 5650 1200 50 
$EndSheet
$Comp
L MCU_Microchip_ATmega:ATmega328P-AU U101
U 1 1 5CFFD2D3
P 2000 5400
F 0 "U101" H 2000 3811 50  0000 C CNN
F 1 "ATmega328P-AU" H 2000 3720 50  0000 C CNN
F 2 "Package_QFP:TQFP-32_7x7mm_P0.8mm" H 2000 5400 50  0001 C CIN
F 3 "http://ww1.microchip.com/downloads/en/DeviceDoc/ATmega328_P%20AVR%20MCU%20with%20picoPower%20Technology%20Data%20Sheet%2040001984A.pdf" H 2000 5400 50  0001 C CNN
	1    2000 5400
	1    0    0    -1  
$EndComp
$Sheet
S 8550 2750 1200 700 
U 5CFFF9B3
F0 "Power" 50
F1 "Power.sch" 50
$EndSheet
$Sheet
S 8450 1450 1050 500 
U 5D033BEA
F0 "Ethernet" 50
F1 "eth.sch" 50
F2 "POE+" I R 9500 1550 50 
F3 "ETH_MOSI" I L 8450 1750 50 
F4 "ETH_MISO" I L 8450 1850 50 
F5 "ETH_SCK" I L 8450 1650 50 
F6 "ETH_~CS" I L 8450 1550 50 
$EndSheet
$Comp
L Device:D D103
U 1 1 5D04F7D0
P 9950 1550
F 0 "D103" H 9950 1334 50  0000 C CNN
F 1 "RS2K" H 9950 1425 50  0000 C CNN
F 2 "Diode_SMD:D_SMB_Handsoldering" H 9950 1550 50  0001 C CNN
F 3 "https://www.mouser.at/datasheet/2/427/rs2a-280084.pdf" H 9950 1550 50  0001 C CNN
	1    9950 1550
	-1   0    0    1   
$EndComp
$Comp
L Device:Fuse F101
U 1 1 5D0502B8
P 9650 1550
F 0 "F101" V 9453 1550 50  0000 C CNN
F 1 "1.25A 125VDC Fast" V 9544 1550 50  0000 C CNN
F 2 "IoDachlukeV2:Schurter_UMK_250_withFH" V 9580 1550 50  0001 C CNN
F 3 "https://www.mouser.at/datasheet/2/54/f-2410fpxxxw-1324365.pdf" H 9650 1550 50  0001 C CNN
	1    9650 1550
	0    1    1    0   
$EndComp
$Comp
L Device:R R108
U 1 1 5D055413
P 3700 2400
F 0 "R108" H 3950 2350 50  0000 R CNN
F 1 "1k" H 3950 2450 50  0000 R CNN
F 2 "Resistor_SMD:R_0603_1608Metric_Pad1.05x0.95mm_HandSolder" V 3630 2400 50  0001 C CNN
F 3 "~" H 3700 2400 50  0001 C CNN
	1    3700 2400
	-1   0    0    1   
$EndComp
$Comp
L power:GND #PWR0114
U 1 1 5D0565D1
P 3700 2550
F 0 "#PWR0114" H 3700 2300 50  0001 C CNN
F 1 "GND" H 3705 2377 50  0000 C CNN
F 2 "" H 3700 2550 50  0001 C CNN
F 3 "" H 3700 2550 50  0001 C CNN
	1    3700 2550
	1    0    0    -1  
$EndComp
$Comp
L Device:Q_NMOS_GSD Q107
U 1 1 5D05A877
P 9950 5900
F 0 "Q107" H 10156 5946 50  0000 L CNN
F 1 "DMN3065LW" H 10156 5855 50  0000 L CNN
F 2 "Package_TO_SOT_SMD:SOT-323_SC-70_Handsoldering" H 10150 6000 50  0001 C CNN
F 3 "https://www.mouser.at/datasheet/2/115/DMN3065LW-335621.pdf" H 9950 5900 50  0001 C CNN
	1    9950 5900
	1    0    0    -1  
$EndComp
$Comp
L Device:R R116
U 1 1 5D05BABC
P 9600 5900
F 0 "R116" V 9393 5900 50  0000 C CNN
F 1 "220R" V 9484 5900 50  0000 C CNN
F 2 "Resistor_SMD:R_0603_1608Metric_Pad1.05x0.95mm_HandSolder" V 9530 5900 50  0001 C CNN
F 3 "~" H 9600 5900 50  0001 C CNN
	1    9600 5900
	0    1    1    0   
$EndComp
Text GLabel 3000 6300 2    50   Input ~ 0
ETH_~CS
Text GLabel 8250 1550 0    50   Input ~ 0
ETH_~CS
Wire Wire Line
	8250 1550 8350 1550
$Comp
L Device:R R115
U 1 1 5D05CD77
P 8350 1300
F 0 "R115" H 8550 1250 50  0000 R CNN
F 1 "10k" H 8550 1350 50  0000 R CNN
F 2 "Resistor_SMD:R_0603_1608Metric_Pad1.05x0.95mm_HandSolder" V 8280 1300 50  0001 C CNN
F 3 "~" H 8350 1300 50  0001 C CNN
	1    8350 1300
	-1   0    0    1   
$EndComp
Wire Wire Line
	8350 1450 8350 1550
Connection ~ 8350 1550
Wire Wire Line
	8350 1550 8450 1550
$Comp
L power:+3.3V #PWR0170
U 1 1 5D05DF0F
P 8350 1150
F 0 "#PWR0170" H 8350 1000 50  0001 C CNN
F 1 "+3.3V" H 8365 1323 50  0000 C CNN
F 2 "" H 8350 1150 50  0001 C CNN
F 3 "" H 8350 1150 50  0001 C CNN
	1    8350 1150
	1    0    0    -1  
$EndComp
$Comp
L power:+3.3V #PWR0143
U 1 1 5D05DFC4
P 2000 3900
F 0 "#PWR0143" H 2000 3750 50  0001 C CNN
F 1 "+3.3V" H 2000 4050 50  0000 C CNN
F 2 "" H 2000 3900 50  0001 C CNN
F 3 "" H 2000 3900 50  0001 C CNN
	1    2000 3900
	1    0    0    -1  
$EndComp
$Comp
L power:+3.3V #PWR0145
U 1 1 5D05E0B7
P 2100 3900
F 0 "#PWR0145" H 2100 3750 50  0001 C CNN
F 1 "+3.3V" H 2000 4050 50  0000 C CNN
F 2 "" H 2100 3900 50  0001 C CNN
F 3 "" H 2100 3900 50  0001 C CNN
	1    2100 3900
	1    0    0    -1  
$EndComp
$Comp
L Device:R R107
U 1 1 5D05E28D
P 4650 850
F 0 "R107" H 4900 750 50  0000 R CNN
F 1 "10k" H 4850 850 50  0000 R CNN
F 2 "Resistor_SMD:R_0603_1608Metric_Pad1.05x0.95mm_HandSolder" V 4580 850 50  0001 C CNN
F 3 "~" H 4650 850 50  0001 C CNN
	1    4650 850 
	-1   0    0    1   
$EndComp
$Comp
L power:+3.3V #PWR0159
U 1 1 5D05E298
P 4650 700
F 0 "#PWR0159" H 4650 550 50  0001 C CNN
F 1 "+3.3V" H 4665 873 50  0000 C CNN
F 2 "" H 4650 700 50  0001 C CNN
F 3 "" H 4650 700 50  0001 C CNN
	1    4650 700 
	1    0    0    -1  
$EndComp
$Comp
L Device:R R106
U 1 1 5D063BBA
P 2450 2550
F 0 "R106" V 2350 2650 50  0000 R CNN
F 1 "10k" V 2450 2600 50  0000 R CNN
F 2 "Resistor_SMD:R_0603_1608Metric_Pad1.05x0.95mm_HandSolder" V 2380 2550 50  0001 C CNN
F 3 "~" H 2450 2550 50  0001 C CNN
	1    2450 2550
	0    1    1    0   
$EndComp
$Comp
L Device:C C106
U 1 1 5D069A5F
P 2950 2550
F 0 "C106" V 3200 2350 50  0000 L CNN
F 1 "100n" V 3100 2350 50  0000 L CNN
F 2 "Capacitor_SMD:C_0603_1608Metric_Pad1.05x0.95mm_HandSolder" H 2988 2400 50  0001 C CNN
F 3 "~" H 2950 2550 50  0001 C CNN
	1    2950 2550
	0    -1   -1   0   
$EndComp
$Comp
L power:GND #PWR0158
U 1 1 5D06A2E5
P 3100 2550
F 0 "#PWR0158" H 3100 2300 50  0001 C CNN
F 1 "GND" H 3105 2377 50  0000 C CNN
F 2 "" H 3100 2550 50  0001 C CNN
F 3 "" H 3100 2550 50  0001 C CNN
	1    3100 2550
	0    -1   -1   0   
$EndComp
Text GLabel 4550 1100 0    50   Input ~ 0
STEPPER_~CS
Text GLabel 3100 5100 2    50   Input ~ 0
STEPPER_~CS
Text GLabel 3000 6100 2    50   Input ~ 0
FLASH_~CS
$Comp
L IoDachlukeV2:FA328 Y101
U 1 1 5D06B68C
P 5050 4900
F 0 "Y101" H 5050 5168 50  0000 C CNN
F 1 "16MHz FA328" H 5050 5077 50  0000 C CNN
F 2 "Crystal:Crystal_SMD_SeikoEpson_FA238V-4Pin_3.2x2.5mm_HandSoldering" H 5050 4900 50  0001 C CNN
F 3 "https://www.mouser.at/datasheet/2/417/7a-13881.pdf" H 5050 4900 50  0001 C CNN
	1    5050 4900
	1    0    0    -1  
$EndComp
$Comp
L power:GND #PWR0144
U 1 1 5D06D6C1
P 2000 6900
F 0 "#PWR0144" H 2000 6650 50  0001 C CNN
F 1 "GND" H 2005 6727 50  0000 C CNN
F 2 "" H 2000 6900 50  0001 C CNN
F 3 "" H 2000 6900 50  0001 C CNN
	1    2000 6900
	1    0    0    -1  
$EndComp
$Comp
L power:GND #PWR0150
U 1 1 5D06DD1A
P 4800 5400
F 0 "#PWR0150" H 4800 5150 50  0001 C CNN
F 1 "GND" H 4805 5227 50  0000 C CNN
F 2 "" H 4800 5400 50  0001 C CNN
F 3 "" H 4800 5400 50  0001 C CNN
	1    4800 5400
	1    0    0    -1  
$EndComp
$Comp
L power:GND #PWR0152
U 1 1 5D06E4AB
P 5300 5400
F 0 "#PWR0152" H 5300 5150 50  0001 C CNN
F 1 "GND" H 5305 5227 50  0000 C CNN
F 2 "" H 5300 5400 50  0001 C CNN
F 3 "" H 5300 5400 50  0001 C CNN
	1    5300 5400
	1    0    0    -1  
$EndComp
Wire Wire Line
	5300 4900 5200 4900
Wire Wire Line
	4800 5100 4800 4900
Wire Wire Line
	4800 4900 4900 4900
$Comp
L power:+3.3V #PWR0148
U 1 1 5D072133
P 2250 750
F 0 "#PWR0148" H 2250 600 50  0001 C CNN
F 1 "+3.3V" H 2265 923 50  0000 C CNN
F 2 "" H 2250 750 50  0001 C CNN
F 3 "" H 2250 750 50  0001 C CNN
	1    2250 750 
	1    0    0    -1  
$EndComp
Wire Wire Line
	2600 4800 2900 4800
$Comp
L Device:C C102
U 1 1 5D09B611
P 1300 4750
F 0 "C102" H 1185 4704 50  0000 R CNN
F 1 "100n" H 1185 4795 50  0000 R CNN
F 2 "Capacitor_SMD:C_0603_1608Metric_Pad1.05x0.95mm_HandSolder" H 1338 4600 50  0001 C CNN
F 3 "~" H 1300 4750 50  0001 C CNN
	1    1300 4750
	1    0    0    1   
$EndComp
$Comp
L power:GND #PWR0141
U 1 1 5D09B61C
P 1300 4900
F 0 "#PWR0141" H 1300 4650 50  0001 C CNN
F 1 "GND" H 1305 4727 50  0000 C CNN
F 2 "" H 1300 4900 50  0001 C CNN
F 3 "" H 1300 4900 50  0001 C CNN
	1    1300 4900
	1    0    0    -1  
$EndComp
Wire Wire Line
	1300 4600 1300 4200
Wire Wire Line
	1300 4200 1400 4200
$Comp
L Connector:Conn_01x04_Male J105
U 1 1 5D09D625
P 10350 5400
F 0 "J105" H 10322 5374 50  0000 R CNN
F 1 "Conn_01x04_Male" H 10322 5283 50  0000 R CNN
F 2 "Connector_Molex:Molex_KK-254_AE-6410-04A_1x04_P2.54mm_Vertical" H 10350 5400 50  0001 C CNN
F 3 "~" H 10350 5400 50  0001 C CNN
	1    10350 5400
	-1   0    0    -1  
$EndComp
$Comp
L power:+12V #PWR0173
U 1 1 5D0A0CED
P 10050 5200
F 0 "#PWR0173" H 10050 5050 50  0001 C CNN
F 1 "+12V" H 10065 5373 50  0000 C CNN
F 2 "" H 10050 5200 50  0001 C CNN
F 3 "" H 10050 5200 50  0001 C CNN
	1    10050 5200
	1    0    0    -1  
$EndComp
Wire Wire Line
	10050 5200 10050 5300
Wire Wire Line
	10050 5300 10150 5300
$Comp
L power:GND #PWR0174
U 1 1 5D0A1599
P 10050 6100
F 0 "#PWR0174" H 10050 5850 50  0001 C CNN
F 1 "GND" H 10055 5927 50  0000 C CNN
F 2 "" H 10050 6100 50  0001 C CNN
F 3 "" H 10050 6100 50  0001 C CNN
	1    10050 6100
	1    0    0    -1  
$EndComp
Wire Wire Line
	10050 5700 10050 5600
Wire Wire Line
	10050 5600 10150 5600
Wire Wire Line
	9450 5900 9350 5900
Text GLabel 9350 5900 0    50   Input ~ 0
LEDR
$Comp
L Device:Q_NMOS_GSD Q106
U 1 1 5D0A172D
P 8450 5900
F 0 "Q106" H 8656 5946 50  0000 L CNN
F 1 "DMN3065LW" H 8656 5855 50  0000 L CNN
F 2 "Package_TO_SOT_SMD:SOT-323_SC-70_Handsoldering" H 8650 6000 50  0001 C CNN
F 3 "https://www.mouser.at/datasheet/2/115/DMN3065LW-335621.pdf" H 8450 5900 50  0001 C CNN
	1    8450 5900
	1    0    0    -1  
$EndComp
Text GLabel 7850 5900 0    50   Input ~ 0
LEDB
Wire Wire Line
	7950 5900 7850 5900
$Comp
L Device:R R114
U 1 1 5D0A173B
P 8100 5900
F 0 "R114" V 7893 5900 50  0000 C CNN
F 1 "220R" V 7984 5900 50  0000 C CNN
F 2 "Resistor_SMD:R_0603_1608Metric_Pad1.05x0.95mm_HandSolder" V 8030 5900 50  0001 C CNN
F 3 "~" H 8100 5900 50  0001 C CNN
	1    8100 5900
	0    1    1    0   
$EndComp
$Comp
L power:GND #PWR0171
U 1 1 5D0A1746
P 8550 6100
F 0 "#PWR0171" H 8550 5850 50  0001 C CNN
F 1 "GND" H 8555 5927 50  0000 C CNN
F 2 "" H 8550 6100 50  0001 C CNN
F 3 "" H 8550 6100 50  0001 C CNN
	1    8550 6100
	1    0    0    -1  
$EndComp
Wire Wire Line
	8550 5700 8550 5500
Wire Wire Line
	8550 5500 10150 5500
$Comp
L Device:R R112
U 1 1 5D0A310F
P 6600 5900
F 0 "R112" V 6393 5900 50  0000 C CNN
F 1 "220R" V 6484 5900 50  0000 C CNN
F 2 "Resistor_SMD:R_0603_1608Metric_Pad1.05x0.95mm_HandSolder" V 6530 5900 50  0001 C CNN
F 3 "~" H 6600 5900 50  0001 C CNN
	1    6600 5900
	0    1    1    0   
$EndComp
$Comp
L power:GND #PWR0166
U 1 1 5D0A311A
P 7050 6100
F 0 "#PWR0166" H 7050 5850 50  0001 C CNN
F 1 "GND" H 7055 5927 50  0000 C CNN
F 2 "" H 7050 6100 50  0001 C CNN
F 3 "" H 7050 6100 50  0001 C CNN
	1    7050 6100
	1    0    0    -1  
$EndComp
$Comp
L Device:Q_NMOS_GSD Q105
U 1 1 5D0A3127
P 6950 5900
F 0 "Q105" H 7156 5946 50  0000 L CNN
F 1 "DMN3065LW" H 7156 5855 50  0000 L CNN
F 2 "Package_TO_SOT_SMD:SOT-323_SC-70_Handsoldering" H 7150 6000 50  0001 C CNN
F 3 "https://www.mouser.at/datasheet/2/115/DMN3065LW-335621.pdf" H 6950 5900 50  0001 C CNN
	1    6950 5900
	1    0    0    -1  
$EndComp
Text GLabel 6350 5900 0    50   Input ~ 0
LEDG
Wire Wire Line
	6450 5900 6350 5900
Wire Wire Line
	7050 5700 7050 5400
Wire Wire Line
	7050 5400 10150 5400
$Comp
L power:GND #PWR0147
U 1 1 5D0AE14C
P 1700 3550
F 0 "#PWR0147" H 1700 3300 50  0001 C CNN
F 1 "GND" H 1600 3450 50  0000 C CNN
F 2 "" H 1700 3550 50  0001 C CNN
F 3 "" H 1700 3550 50  0001 C CNN
	1    1700 3550
	1    0    0    -1  
$EndComp
Wire Wire Line
	2200 3150 3700 3150
Wire Wire Line
	3800 3050 2200 3050
Wire Wire Line
	2200 2950 3900 2950
$Comp
L Connector:AVR-ISP-10 J102
U 1 1 5D0B112D
P 1800 3150
F 0 "J102" H 1520 3246 50  0000 R CNN
F 1 "AVR-ISP-10" H 1520 3155 50  0000 R CNN
F 2 "Connector_PinHeader_2.54mm:PinHeader_2x05_P2.54mm_Vertical_SMD" V 1550 3200 50  0001 C CNN
F 3 "https://www.mouser.at/datasheet/2/527/htst-1370241.pdf" H 525 2600 50  0001 C CNN
	1    1800 3150
	1    0    0    -1  
$EndComp
Text GLabel 4200 4200 2    50   Input ~ 0
LEDG
Text GLabel 3000 6500 2    50   Input ~ 0
LEDB
Wire Wire Line
	3000 6400 2600 6400
Text GLabel 3000 6400 2    50   Input ~ 0
LEDR
Wire Wire Line
	3000 6500 2600 6500
Wire Notes Line style solid rgb(0, 0, 0)
	1500 2150 1600 2150
Wire Notes Line style solid rgb(0, 0, 0)
	1500 2050 1800 2050
Wire Notes Line style solid rgb(0, 0, 0)
	1700 1950 1800 1950
Wire Wire Line
	2150 1350 2150 1850
Text GLabel 1750 1050 0    50   Input ~ 0
OPEN{slash}~CLOSE
Wire Notes Line style solid rgb(0, 0, 0)
	1500 1850 1800 1850
Wire Wire Line
	2150 1850 2050 1850
Wire Notes Line style solid rgb(0, 0, 0)
	1700 2150 1800 2150
Wire Notes Line style solid rgb(0, 0, 0)
	1600 1950 1600 1900
Wire Notes Line style solid rgb(0, 0, 0)
	1600 2100 1600 2150
Wire Notes Line style solid rgb(0, 0, 0)
	1500 1950 1500 1850
Wire Notes Line style solid rgb(0, 0, 0)
	1500 1950 1600 1950
Wire Wire Line
	2150 2150 2050 2150
Wire Notes Line style solid rgb(0, 0, 0)
	1570 1900 1700 1950
Text Notes 950  2150 0    50   ~ 0
sw_end_closed
Wire Notes Line style solid rgb(0, 0, 0)
	1500 2150 1500 2050
Wire Wire Line
	2150 1950 2150 2150
Wire Notes Line style solid rgb(0, 0, 0)
	1570 2100 1700 2150
Text Notes 950  1950 0    50   ~ 0
sw_end_open
Connection ~ 2150 2150
Text GLabel 4550 1400 0    50   Input ~ 0
SPI_MOSI
Text GLabel 8250 1750 0    50   Input ~ 0
SPI_MOSI
Text GLabel 8250 1850 0    50   Input ~ 0
SPI_MISO
Text GLabel 4550 1500 0    50   Input ~ 0
SPI_MISO
Text GLabel 4550 1200 0    50   Input ~ 0
SPI_SCK
Text GLabel 8250 1650 0    50   Input ~ 0
SPI_SCK
Wire Wire Line
	8250 1650 8450 1650
Wire Wire Line
	8250 1750 8450 1750
Wire Wire Line
	8250 1850 8450 1850
$Comp
L Device:LED D101
U 1 1 5D0C0864
P 3450 1500
F 0 "D101" V 3489 1383 50  0000 R CNN
F 1 "LED" V 3398 1383 50  0000 R CNN
F 2 "LED_SMD:LED_1206_3216Metric_Pad1.42x1.75mm_HandSolder" H 3450 1500 50  0001 C CNN
F 3 "~" H 3450 1500 50  0001 C CNN
	1    3450 1500
	0    -1   -1   0   
$EndComp
Wire Wire Line
	2150 1950 2050 1950
$Comp
L Device:LED D102
U 1 1 5D0C27D2
P 3750 1500
F 0 "D102" V 3789 1383 50  0000 R CNN
F 1 "LED" V 3698 1383 50  0000 R CNN
F 2 "LED_SMD:LED_1206_3216Metric_Pad1.42x1.75mm_HandSolder" H 3750 1500 50  0001 C CNN
F 3 "~" H 3750 1500 50  0001 C CNN
	1    3750 1500
	0    -1   -1   0   
$EndComp
$Comp
L power:+3.3V #PWR0151
U 1 1 5D0C2D7D
P 3450 1050
F 0 "#PWR0151" H 3450 900 50  0001 C CNN
F 1 "+3.3V" H 3465 1223 50  0000 C CNN
F 2 "" H 3450 1050 50  0001 C CNN
F 3 "" H 3450 1050 50  0001 C CNN
	1    3450 1050
	1    0    0    -1  
$EndComp
$Comp
L power:+3.3V #PWR0153
U 1 1 5D0C30D0
P 3750 1050
F 0 "#PWR0153" H 3750 900 50  0001 C CNN
F 1 "+3.3V" H 3765 1223 50  0000 C CNN
F 2 "" H 3750 1050 50  0001 C CNN
F 3 "" H 3750 1050 50  0001 C CNN
	1    3750 1050
	1    0    0    -1  
$EndComp
$Comp
L Device:R R103
U 1 1 5D0C3ADD
P 3450 1200
F 0 "R103" H 3650 1150 50  0000 R CNN
F 1 "470R" H 3650 1250 50  0000 R CNN
F 2 "Resistor_SMD:R_0603_1608Metric_Pad1.05x0.95mm_HandSolder" V 3380 1200 50  0001 C CNN
F 3 "~" H 3450 1200 50  0001 C CNN
	1    3450 1200
	-1   0    0    1   
$EndComp
$Comp
L Device:R R105
U 1 1 5D0C419C
P 3750 1200
F 0 "R105" H 3950 1150 50  0000 R CNN
F 1 "470R" H 3950 1250 50  0000 R CNN
F 2 "Resistor_SMD:R_0603_1608Metric_Pad1.05x0.95mm_HandSolder" V 3680 1200 50  0001 C CNN
F 3 "~" H 3750 1200 50  0001 C CNN
	1    3750 1200
	-1   0    0    1   
$EndComp
Wire Wire Line
	2600 5100 3100 5100
Wire Wire Line
	2600 5500 2900 5500
Text GLabel 3000 6200 2    50   Input ~ 0
OPEN{slash}~CLOSE
Wire Wire Line
	3000 5900 2600 5900
Wire Wire Line
	3000 6000 2600 6000
Wire Wire Line
	3000 6100 2600 6100
$Comp
L Device:R R102
U 1 1 5D0C7DCF
P 3050 5500
F 0 "R102" V 2843 5500 50  0000 C CNN
F 1 "470R" V 2934 5500 50  0000 C CNN
F 2 "Resistor_SMD:R_0603_1608Metric_Pad1.05x0.95mm_HandSolder" V 2980 5500 50  0001 C CNN
F 3 "~" H 3050 5500 50  0001 C CNN
	1    3050 5500
	0    1    1    0   
$EndComp
$Comp
L Amplifier_Operational:MCP602 U103
U 1 1 5D0C8FD0
P 8000 4500
F 0 "U103" H 8000 4867 50  0000 C CNN
F 1 "MCP602" H 8100 4750 50  0000 C CNN
F 2 "Package_SO:SOIC-8_3.9x4.9mm_P1.27mm" H 8000 4500 50  0001 C CNN
F 3 "http://ww1.microchip.com/downloads/en/DeviceDoc/21314g.pdf" H 8000 4500 50  0001 C CNN
	1    8000 4500
	1    0    0    -1  
$EndComp
$Comp
L Amplifier_Operational:MCP602 U103
U 2 1 5D0D9421
P 9700 4500
F 0 "U103" H 9700 4867 50  0000 C CNN
F 1 "MCP602" H 9750 4750 50  0000 C CNN
F 2 "Package_SO:SOIC-8_3.9x4.9mm_P1.27mm" H 9700 4500 50  0001 C CNN
F 3 "http://ww1.microchip.com/downloads/en/DeviceDoc/21314g.pdf" H 9700 4500 50  0001 C CNN
	2    9700 4500
	1    0    0    -1  
$EndComp
$Comp
L Amplifier_Operational:MCP602 U103
U 3 1 5D0D96E6
P 8000 4500
F 0 "U103" H 7958 4500 50  0001 L CNN
F 1 "MCP602" H 7958 4455 50  0001 L CNN
F 2 "Package_SO:SOIC-8_3.9x4.9mm_P1.27mm" H 8000 4500 50  0001 C CNN
F 3 "http://ww1.microchip.com/downloads/en/DeviceDoc/21314g.pdf" H 8000 4500 50  0001 C CNN
	3    8000 4500
	1    0    0    -1  
$EndComp
$Comp
L power:+3.3V #PWR0154
U 1 1 5D0AD068
P 5150 3300
F 0 "#PWR0154" H 5150 3150 50  0001 C CNN
F 1 "+3.3V" H 5165 3473 50  0000 C CNN
F 2 "" H 5150 3300 50  0001 C CNN
F 3 "" H 5150 3300 50  0001 C CNN
	1    5150 3300
	1    0    0    -1  
$EndComp
Wire Wire Line
	4650 3000 4650 3500
Wire Wire Line
	4650 3600 4750 3600
Wire Wire Line
	4500 3700 4500 3400
Wire Wire Line
	4750 3500 4650 3500
Wire Wire Line
	4650 3500 4650 3600
Wire Wire Line
	4750 3700 4500 3700
$Comp
L power:GND #PWR0155
U 1 1 5D0ACD0E
P 5150 3900
F 0 "#PWR0155" H 5150 3650 50  0001 C CNN
F 1 "GND" H 5155 3727 50  0000 C CNN
F 2 "" H 5150 3900 50  0001 C CNN
F 3 "" H 5150 3900 50  0001 C CNN
	1    5150 3900
	1    0    0    -1  
$EndComp
Text GLabel 4400 3700 0    50   Input ~ 0
FLASH_~CS
Wire Wire Line
	4500 3700 4400 3700
Connection ~ 4500 3000
Wire Wire Line
	4500 3000 4500 3100
$Comp
L Device:R R101
U 1 1 5D05FCE8
P 4500 3250
F 0 "R101" H 4700 3200 50  0000 R CNN
F 1 "10k" H 4700 3300 50  0000 R CNN
F 2 "Resistor_SMD:R_0603_1608Metric_Pad1.05x0.95mm_HandSolder" V 4430 3250 50  0001 C CNN
F 3 "~" H 4500 3250 50  0001 C CNN
	1    4500 3250
	-1   0    0    1   
$EndComp
$Comp
L power:+3.3V #PWR0149
U 1 1 5D05FCF3
P 4500 2900
F 0 "#PWR0149" H 4500 2750 50  0001 C CNN
F 1 "+3.3V" H 4515 3073 50  0000 C CNN
F 2 "" H 4500 2900 50  0001 C CNN
F 3 "" H 4500 2900 50  0001 C CNN
	1    4500 2900
	1    0    0    -1  
$EndComp
Wire Wire Line
	4500 2900 4500 3000
Connection ~ 4650 3500
Wire Wire Line
	4500 3000 4650 3000
Connection ~ 4500 3700
$Comp
L Memory_EEPROM:AT25xxx U102
U 1 1 5D16B293
P 5150 3600
F 0 "U102" H 5150 4078 50  0000 C CNN
F 1 "AT25SF041-SSHD-B" H 5150 3987 50  0000 C CNN
F 2 "Package_SO:SOIC-8_3.9x4.9mm_P1.27mm" H 5150 3600 50  0001 C CNN
F 3 "http://ww1.microchip.com/downloads/en/DeviceDoc/Atmel-8707-SEEPROM-AT25010B-020B-040B-Datasheet.pdf" H 5150 3600 50  0001 C CNN
	1    5150 3600
	1    0    0    -1  
$EndComp
$Comp
L Device:R R113
U 1 1 5D0E3F8F
P 7950 3900
F 0 "R113" V 7743 3900 50  0000 C CNN
F 1 "33k" V 7834 3900 50  0000 C CNN
F 2 "Resistor_SMD:R_0603_1608Metric_Pad1.05x0.95mm_HandSolder" V 7880 3900 50  0001 C CNN
F 3 "~" H 7950 3900 50  0001 C CNN
	1    7950 3900
	0    1    1    0   
$EndComp
Wire Wire Line
	7700 4600 7600 4600
Wire Wire Line
	7600 4600 7600 3900
Wire Wire Line
	7600 3900 7800 3900
Wire Wire Line
	8100 3900 8400 3900
Wire Wire Line
	8400 3900 8400 4500
Wire Wire Line
	8400 4500 8300 4500
Wire Wire Line
	7600 3900 7500 3900
Connection ~ 7600 3900
Wire Wire Line
	9400 4600 9300 4600
Wire Wire Line
	9300 4600 9300 3900
Wire Wire Line
	9300 3900 9500 3900
$Comp
L Device:R R117
U 1 1 5D0E4BCD
P 9650 3900
F 0 "R117" V 9443 3900 50  0000 C CNN
F 1 "33k" V 9534 3900 50  0000 C CNN
F 2 "Resistor_SMD:R_0603_1608Metric_Pad1.05x0.95mm_HandSolder" V 9580 3900 50  0001 C CNN
F 3 "~" H 9650 3900 50  0001 C CNN
	1    9650 3900
	0    1    1    0   
$EndComp
Wire Wire Line
	9800 3900 10100 3900
Wire Wire Line
	10100 3900 10100 4500
Wire Wire Line
	10100 4500 10000 4500
Wire Wire Line
	10100 4500 10200 4500
Connection ~ 10100 4500
Wire Wire Line
	8400 4500 8500 4500
Connection ~ 8400 4500
$Comp
L power:+3.3V #PWR0168
U 1 1 5D0E55C2
P 7900 4200
F 0 "#PWR0168" H 7900 4050 50  0001 C CNN
F 1 "+3.3V" H 7915 4373 50  0000 C CNN
F 2 "" H 7900 4200 50  0001 C CNN
F 3 "" H 7900 4200 50  0001 C CNN
	1    7900 4200
	1    0    0    -1  
$EndComp
Wire Wire Line
	9300 3900 9200 3900
Connection ~ 9300 3900
$Comp
L power:GND #PWR0169
U 1 1 5D0E7074
P 7900 4800
F 0 "#PWR0169" H 7900 4550 50  0001 C CNN
F 1 "GND" H 7905 4627 50  0000 C CNN
F 2 "" H 7900 4800 50  0001 C CNN
F 3 "" H 7900 4800 50  0001 C CNN
	1    7900 4800
	1    0    0    -1  
$EndComp
$Comp
L power:GND #PWR0167
U 1 1 5D0E72D9
P 7500 4500
F 0 "#PWR0167" H 7500 4250 50  0001 C CNN
F 1 "GND" H 7505 4327 50  0000 C CNN
F 2 "" H 7500 4500 50  0001 C CNN
F 3 "" H 7500 4500 50  0001 C CNN
	1    7500 4500
	1    0    0    -1  
$EndComp
$Comp
L power:GND #PWR0172
U 1 1 5D0E79F4
P 9200 4500
F 0 "#PWR0172" H 9200 4250 50  0001 C CNN
F 1 "GND" H 9205 4327 50  0000 C CNN
F 2 "" H 9200 4500 50  0001 C CNN
F 3 "" H 9200 4500 50  0001 C CNN
	1    9200 4500
	1    0    0    -1  
$EndComp
Wire Wire Line
	9200 4500 9200 4400
Wire Wire Line
	9200 4400 9400 4400
Wire Wire Line
	7700 4400 7500 4400
Wire Wire Line
	7500 4400 7500 4500
Text GLabel 7500 3900 0    50   Input ~ 0
RAIN_PD1
Text GLabel 9200 3900 0    50   Input ~ 0
RAIN_PD2
Text GLabel 8500 4500 2    50   Input ~ 0
PD1_TRANS
Text GLabel 10200 4500 2    50   Input ~ 0
PD2_TRANS
Text GLabel 7050 4300 0    50   Input ~ 0
RAIN_PD1
$Comp
L power:VBUS #PWR0176
U 1 1 5D0EDF20
P 10200 1450
F 0 "#PWR0176" H 10200 1300 50  0001 C CNN
F 1 "VBUS" H 10215 1623 50  0000 C CNN
F 2 "" H 10200 1450 50  0001 C CNN
F 3 "" H 10200 1450 50  0001 C CNN
	1    10200 1450
	1    0    0    -1  
$EndComp
$Comp
L Connector:Conn_01x03_Male J103
U 1 1 5D0FA743
P 6250 6500
F 0 "J103" H 6222 6524 50  0000 R CNN
F 1 "Conn_01x03_Male" H 6222 6433 50  0000 R CNN
F 2 "Connector_Molex:Molex_KK-254_AE-6410-03A_1x03_P2.54mm_Vertical" H 6250 6500 50  0001 C CNN
F 3 "~" H 6250 6500 50  0001 C CNN
	1    6250 6500
	-1   0    0    1   
$EndComp
$Comp
L power:GND #PWR0164
U 1 1 5D0FB26D
P 5950 6700
F 0 "#PWR0164" H 5950 6450 50  0001 C CNN
F 1 "GND" H 5955 6527 50  0000 C CNN
F 2 "" H 5950 6700 50  0001 C CNN
F 3 "" H 5950 6700 50  0001 C CNN
	1    5950 6700
	1    0    0    -1  
$EndComp
Wire Wire Line
	5950 6700 5950 6400
Wire Wire Line
	5950 6400 6050 6400
$Comp
L power:+12V #PWR0162
U 1 1 5D0FBC05
P 5700 6000
F 0 "#PWR0162" H 5700 5850 50  0001 C CNN
F 1 "+12V" H 5715 6173 50  0000 C CNN
F 2 "" H 5700 6000 50  0001 C CNN
F 3 "" H 5700 6000 50  0001 C CNN
	1    5700 6000
	1    0    0    -1  
$EndComp
$Comp
L Transistor_BJT:BC847BS Q103
U 1 1 5D0FBE7D
P 4700 7100
F 0 "Q103" H 4900 7150 50  0000 L CNN
F 1 "BC847BS" H 4890 7055 50  0001 L CNN
F 2 "Package_TO_SOT_SMD:TSOT-23-6_HandSoldering" H 4900 7200 50  0001 C CNN
F 3 "https://assets.nexperia.com/documents/data-sheet/BC847BS.pdf" H 4700 7100 50  0001 C CNN
	1    4700 7100
	1    0    0    -1  
$EndComp
$Comp
L Transistor_BJT:BC847BS Q103
U 2 1 5D0FC65C
P 5400 7100
F 0 "Q103" H 5600 7150 50  0000 L CNN
F 1 "BC847BS" H 5591 7055 50  0000 L CNN
F 2 "Package_TO_SOT_SMD:TSOT-23-6_HandSoldering" H 5600 7200 50  0001 C CNN
F 3 "https://assets.nexperia.com/documents/data-sheet/BC847BS.pdf" H 5400 7100 50  0001 C CNN
	2    5400 7100
	-1   0    0    -1  
$EndComp
$Comp
L Transistor_BJT:BCP53 Q104
U 1 1 5D0FD1F4
P 5600 6200
F 0 "Q104" H 5791 6246 50  0000 L CNN
F 1 "BCP53" H 5791 6155 50  0000 L CNN
F 2 "Package_TO_SOT_SMD:SOT-223" H 5800 6125 50  0001 L CIN
F 3 "http://www.onsemi.com/pub_link/Collateral/BCP53T1-D.PDF" H 5600 6200 50  0001 L CNN
	1    5600 6200
	1    0    0    -1  
$EndComp
$Comp
L Device:R R110
U 1 1 5D1023DE
P 5700 6850
F 0 "R110" H 5770 6896 50  0000 L CNN
F 1 "270k" H 5770 6805 50  0000 L CNN
F 2 "Resistor_SMD:R_0603_1608Metric_Pad1.05x0.95mm_HandSolder" V 5630 6850 50  0001 C CNN
F 3 "~" H 5700 6850 50  0001 C CNN
	1    5700 6850
	1    0    0    -1  
$EndComp
$Comp
L Device:R R111
U 1 1 5D102648
P 5700 7450
F 0 "R111" H 5770 7496 50  0000 L CNN
F 1 "100k" H 5770 7405 50  0000 L CNN
F 2 "Resistor_SMD:R_0603_1608Metric_Pad1.05x0.95mm_HandSolder" V 5630 7450 50  0001 C CNN
F 3 "~" H 5700 7450 50  0001 C CNN
	1    5700 7450
	1    0    0    -1  
$EndComp
$Comp
L power:GND #PWR0163
U 1 1 5D102904
P 5700 7600
F 0 "#PWR0163" H 5700 7350 50  0001 C CNN
F 1 "GND" H 5705 7427 50  0000 C CNN
F 2 "" H 5700 7600 50  0001 C CNN
F 3 "" H 5700 7600 50  0001 C CNN
	1    5700 7600
	1    0    0    -1  
$EndComp
Wire Wire Line
	5700 6700 5700 6500
Wire Wire Line
	5700 6500 6050 6500
Connection ~ 5700 6500
Wire Wire Line
	5700 6500 5700 6400
Wire Wire Line
	5700 7300 5700 7100
Wire Wire Line
	5600 7100 5700 7100
Connection ~ 5700 7100
Wire Wire Line
	5700 7100 5700 7000
Wire Wire Line
	5300 7300 5050 7300
$Comp
L power:GND #PWR0160
U 1 1 5D10FEE3
P 5050 7600
F 0 "#PWR0160" H 5050 7350 50  0001 C CNN
F 1 "GND" H 5055 7427 50  0000 C CNN
F 2 "" H 5050 7600 50  0001 C CNN
F 3 "" H 5050 7600 50  0001 C CNN
	1    5050 7600
	1    0    0    -1  
$EndComp
$Comp
L Device:R R109
U 1 1 5D10FEEF
P 5050 7450
F 0 "R109" H 4980 7496 50  0000 R CNN
F 1 "2k2" H 4980 7405 50  0000 R CNN
F 2 "Resistor_SMD:R_0603_1608Metric_Pad1.05x0.95mm_HandSolder" V 4980 7450 50  0001 C CNN
F 3 "~" H 5050 7450 50  0001 C CNN
	1    5050 7450
	1    0    0    -1  
$EndComp
Connection ~ 5050 7300
Wire Wire Line
	5050 7300 4800 7300
$Comp
L Device:C C105
U 1 1 5D110A93
P 4400 7350
F 0 "C105" H 4515 7396 50  0000 L CNN
F 1 "1u" H 4515 7305 50  0000 L CNN
F 2 "Capacitor_SMD:C_0603_1608Metric_Pad1.05x0.95mm_HandSolder" H 4438 7200 50  0001 C CNN
F 3 "~" H 4400 7350 50  0001 C CNN
	1    4400 7350
	1    0    0    -1  
$EndComp
$Comp
L power:GND #PWR0156
U 1 1 5D110CC6
P 4400 7500
F 0 "#PWR0156" H 4400 7250 50  0001 C CNN
F 1 "GND" H 4405 7327 50  0000 C CNN
F 2 "" H 4400 7500 50  0001 C CNN
F 3 "" H 4400 7500 50  0001 C CNN
	1    4400 7500
	1    0    0    -1  
$EndComp
Wire Wire Line
	4300 7100 4400 7100
Wire Wire Line
	4400 7200 4400 7100
Connection ~ 4400 7100
Wire Wire Line
	4400 7100 4500 7100
$Comp
L Device:R R104
U 1 1 5D111391
P 4150 7100
F 0 "R104" V 3943 7100 50  0000 C CNN
F 1 "100k" V 4034 7100 50  0000 C CNN
F 2 "Resistor_SMD:R_0603_1608Metric_Pad1.05x0.95mm_HandSolder" V 4080 7100 50  0001 C CNN
F 3 "~" H 4150 7100 50  0001 C CNN
	1    4150 7100
	0    1    1    0   
$EndComp
Wire Wire Line
	5400 6200 4800 6200
Wire Wire Line
	4800 6200 4800 6900
$Comp
L power:+12V #PWR0161
U 1 1 5D111ECD
P 5300 6900
F 0 "#PWR0161" H 5300 6750 50  0001 C CNN
F 1 "+12V" H 5315 7073 50  0000 C CNN
F 2 "" H 5300 6900 50  0001 C CNN
F 3 "" H 5300 6900 50  0001 C CNN
	1    5300 6900
	1    0    0    -1  
$EndComp
Wire Wire Line
	6050 6600 5600 6600
Text GLabel 4000 7100 0    50   Input ~ 0
FAN_PWM
Text GLabel 5600 6600 0    50   Input ~ 0
FAN_TACHO
Wire Wire Line
	2600 6300 3000 6300
Text GLabel 3000 6600 2    50   Input ~ 0
FAN_TACHO
Wire Wire Line
	3000 6600 2600 6600
Text GLabel 4200 4300 2    50   Input ~ 0
FAN_PWM
$Comp
L Device:C C101
U 1 1 5D115319
P 1050 3950
F 0 "C101" H 935 3904 50  0000 R CNN
F 1 "100n" H 935 3995 50  0000 R CNN
F 2 "Capacitor_SMD:C_0603_1608Metric_Pad1.05x0.95mm_HandSolder" H 1088 3800 50  0001 C CNN
F 3 "~" H 1050 3950 50  0001 C CNN
	1    1050 3950
	1    0    0    1   
$EndComp
$Comp
L power:GND #PWR0140
U 1 1 5D116298
P 1050 4100
F 0 "#PWR0140" H 1050 3850 50  0001 C CNN
F 1 "GND" H 1055 3927 50  0000 C CNN
F 2 "" H 1050 4100 50  0001 C CNN
F 3 "" H 1050 4100 50  0001 C CNN
	1    1050 4100
	1    0    0    -1  
$EndComp
$Comp
L power:+3.3V #PWR0139
U 1 1 5D11679B
P 1050 3800
F 0 "#PWR0139" H 1050 3650 50  0001 C CNN
F 1 "+3.3V" H 1065 3973 50  0000 C CNN
F 2 "" H 1050 3800 50  0001 C CNN
F 3 "" H 1050 3800 50  0001 C CNN
	1    1050 3800
	1    0    0    -1  
$EndComp
$Comp
L Device:C C103
U 1 1 5D1362E5
P 4800 5250
F 0 "C103" H 4685 5204 50  0000 R CNN
F 1 "18p" H 4685 5295 50  0000 R CNN
F 2 "Capacitor_SMD:C_0603_1608Metric_Pad1.05x0.95mm_HandSolder" H 4838 5100 50  0001 C CNN
F 3 "~" H 4800 5250 50  0001 C CNN
	1    4800 5250
	1    0    0    1   
$EndComp
$Comp
L Device:C C104
U 1 1 5D13669D
P 5300 5250
F 0 "C104" H 5185 5204 50  0000 R CNN
F 1 "18p" H 5185 5295 50  0000 R CNN
F 2 "Capacitor_SMD:C_0603_1608Metric_Pad1.05x0.95mm_HandSolder" H 5338 5100 50  0001 C CNN
F 3 "~" H 5300 5250 50  0001 C CNN
	1    5300 5250
	1    0    0    1   
$EndComp
$Comp
L Mechanical:MountingHole H102
U 1 1 5D214A70
P 1000 7500
F 0 "H102" H 1100 7546 50  0000 L CNN
F 1 "MountingHole" H 1100 7455 50  0000 L CNN
F 2 "MountingHole:MountingHole_3.2mm_M3" H 1000 7500 50  0001 C CNN
F 3 "~" H 1000 7500 50  0001 C CNN
	1    1000 7500
	1    0    0    -1  
$EndComp
$Comp
L Mechanical:MountingHole H104
U 1 1 5D216376
P 1500 7500
F 0 "H104" H 1600 7546 50  0000 L CNN
F 1 "MountingHole" H 1600 7455 50  0000 L CNN
F 2 "MountingHole:MountingHole_3.2mm_M3" H 1500 7500 50  0001 C CNN
F 3 "~" H 1500 7500 50  0001 C CNN
	1    1500 7500
	1    0    0    -1  
$EndComp
$Comp
L Mechanical:MountingHole H101
U 1 1 5D2163F5
P 1000 7300
F 0 "H101" H 1100 7346 50  0000 L CNN
F 1 "MountingHole" H 1100 7255 50  0000 L CNN
F 2 "MountingHole:MountingHole_3.2mm_M3" H 1000 7300 50  0001 C CNN
F 3 "~" H 1000 7300 50  0001 C CNN
	1    1000 7300
	1    0    0    -1  
$EndComp
$Comp
L Mechanical:MountingHole H103
U 1 1 5D216474
P 1500 7300
F 0 "H103" H 1600 7346 50  0000 L CNN
F 1 "MountingHole" H 1600 7255 50  0000 L CNN
F 2 "MountingHole:MountingHole_3.2mm_M3" H 1500 7300 50  0001 C CNN
F 3 "~" H 1500 7300 50  0001 C CNN
	1    1500 7300
	1    0    0    -1  
$EndComp
Wire Wire Line
	10100 1550 10200 1550
Wire Wire Line
	10200 1450 10200 1550
$Comp
L IoDachlukeV2:PhoenixContact_PTSM_0,5_3-2,5-V_SMD M101A101
U 1 1 5D0EC5EE
P 7250 1650
F 0 "M101A101" V 7475 1650 50  0000 C CNN
F 1 "Stepper" V 7384 1650 50  0000 C CNN
F 2 "IoDachlukeV2:PhoenixContact_PTSM_0,5_3-2,5-V_SMD" H 7250 1650 50  0001 C CNN
F 3 "https://www.phoenixcontact.com/online/portal/us?uri=pxc-oc-itemdetail:pid=1814715&library=usen&pdfmode=direct&pdflanguage=en" H 7250 1650 50  0001 C CNN
	1    7250 1650
	0    -1   -1   0   
$EndComp
Wire Wire Line
	6850 2150 6950 2150
Wire Wire Line
	6950 2350 6950 2150
Connection ~ 6950 2150
Wire Wire Line
	6950 2150 7150 2150
Wire Wire Line
	7550 2050 7550 2350
Wire Wire Line
	6850 2050 7350 2050
Wire Wire Line
	7350 2150 7350 2050
Connection ~ 7350 2050
Wire Wire Line
	7350 2050 7550 2050
Wire Wire Line
	7550 1950 7550 1650
Wire Wire Line
	7350 1850 7350 1950
Wire Wire Line
	6850 1950 7350 1950
Connection ~ 7350 1950
Wire Wire Line
	7350 1950 7550 1950
Wire Wire Line
	6850 1850 6950 1850
Wire Wire Line
	6950 1850 6950 1650
Connection ~ 6950 1850
Wire Wire Line
	6950 1850 7150 1850
$Comp
L IoDachlukeV2:PhoenixContact_PTSM_0,5_3-2,5-V_SMD M101B101
U 1 1 5D0EEBF8
P 7250 2350
F 0 "M101B101" V 7383 2350 50  0000 C CNN
F 1 "Stepper" V 7474 2350 50  0000 C CNN
F 2 "IoDachlukeV2:PhoenixContact_PTSM_0,5_3-2,5-V_SMD" H 7250 2350 50  0001 C CNN
F 3 "https://www.phoenixcontact.com/online/portal/us?uri=pxc-oc-itemdetail:pid=1814715&library=usen&pdfmode=direct&pdflanguage=en" H 7250 2350 50  0001 C CNN
	1    7250 2350
	0    1    1    0   
$EndComp
$Comp
L IoDachlukeV2:PhoenixContact_PTSM_0,5_4-2,5-H_SMD J101
U 1 1 5D1871B3
P 1850 1950
F 0 "J101" H 1937 1900 50  0000 L CNN
F 1 "PhoenixContact_PTSM_0,5_4-2,5-H_SMD" H 1938 1945 50  0001 L CNN
F 2 "IoDachlukeV2:PhoenixContact_PTSM_0,5_4-2,5-H_SMD" H 1850 1950 50  0001 C CNN
F 3 "https://www.phoenixcontact.com/online/portal/us?uri=pxc-oc-itemdetail:pid=1814715&library=usen&pdfmode=direct&pdflanguage=en" H 1850 1950 50  0001 C CNN
	1    1850 1950
	-1   0    0    -1  
$EndComp
$Comp
L power:GND #PWR0134
U 1 1 5D1889F6
P 1850 2350
F 0 "#PWR0134" H 1850 2100 50  0001 C CNN
F 1 "GND" H 1855 2177 50  0000 C CNN
F 2 "" H 1850 2350 50  0001 C CNN
F 3 "" H 1850 2350 50  0001 C CNN
	1    1850 2350
	1    0    0    -1  
$EndComp
$Comp
L power:GND #PWR0111
U 1 1 5D189051
P 1700 1600
F 0 "#PWR0111" H 1700 1350 50  0001 C CNN
F 1 "GND" H 1705 1427 50  0000 C CNN
F 2 "" H 1700 1600 50  0001 C CNN
F 3 "" H 1700 1600 50  0001 C CNN
	1    1700 1600
	1    0    0    -1  
$EndComp
Wire Wire Line
	1700 1600 1700 1550
Wire Wire Line
	1700 1550 1850 1550
Wire Wire Line
	1850 1550 1850 1650
Wire Wire Line
	2050 2050 2350 2050
Wire Wire Line
	2350 1350 2350 2050
$Comp
L Device:R R118
U 1 1 5D27E595
P 1850 1300
F 0 "R118" H 2100 1250 50  0000 R CNN
F 1 "10k" H 2100 1350 50  0000 R CNN
F 2 "Resistor_SMD:R_0603_1608Metric_Pad1.05x0.95mm_HandSolder" V 1780 1300 50  0001 C CNN
F 3 "~" H 1850 1300 50  0001 C CNN
	1    1850 1300
	-1   0    0    1   
$EndComp
Wire Wire Line
	1750 1050 1850 1050
Wire Wire Line
	1850 1050 1850 1150
Connection ~ 1850 1050
Wire Wire Line
	1850 1050 1950 1050
Wire Wire Line
	1850 1450 1850 1550
Connection ~ 1850 1550
$Comp
L Analog_Switch:TS5A3159ADBVR U104
U 1 1 5D271200
P 2350 1050
F 0 "U104" V 2000 -50 50  0000 L CNN
F 1 "SN74LVC1G3157DBVR" V 2091 -50 50  0000 L CNN
F 2 "Package_TO_SOT_SMD:SOT-23-6" H 2350 750 50  0001 C CNN
F 3 "http://www.ti.com/lit/ds/symlink/ts5a3159a.pdf" H 2350 1050 50  0001 C CNN
	1    2350 1050
	0    1    1    0   
$EndComp
$Comp
L Analog_Switch:TS5A3159ADBVR U104
U 2 1 5D27F420
P 2650 1300
F 0 "U104" H 2830 1300 50  0000 L CNN
F 1 "SN74LVC1G3157DBVR" H 2830 1255 50  0001 L CNN
F 2 "Package_TO_SOT_SMD:SOT-23-6" H 2650 1000 50  0001 C CNN
F 3 "http://www.ti.com/lit/ds/symlink/ts5a3159a.pdf" H 2650 1300 50  0001 C CNN
	2    2650 1300
	1    0    0    -1  
$EndComp
$Comp
L power:+3.3V #PWR0135
U 1 1 5D28B7D5
P 2650 800
F 0 "#PWR0135" H 2650 650 50  0001 C CNN
F 1 "+3.3V" H 2665 973 50  0000 C CNN
F 2 "" H 2650 800 50  0001 C CNN
F 3 "" H 2650 800 50  0001 C CNN
	1    2650 800 
	1    0    0    -1  
$EndComp
$Comp
L power:GND #PWR0142
U 1 1 5D28BCD8
P 2650 1800
F 0 "#PWR0142" H 2650 1550 50  0001 C CNN
F 1 "GND" H 2655 1627 50  0000 C CNN
F 2 "" H 2650 1800 50  0001 C CNN
F 3 "" H 2650 1800 50  0001 C CNN
	1    2650 1800
	1    0    0    -1  
$EndComp
$Comp
L power:+3.3V #PWR0175
U 1 1 5D2B1732
P 5500 1750
F 0 "#PWR0175" H 5500 1600 50  0001 C CNN
F 1 "+3.3V" H 5515 1923 50  0000 C CNN
F 2 "" H 5500 1750 50  0001 C CNN
F 3 "" H 5500 1750 50  0001 C CNN
	1    5500 1750
	1    0    0    -1  
$EndComp
Wire Wire Line
	5500 1750 5650 1750
Text GLabel 3000 5900 2    50   Input ~ 0
RX
Text GLabel 3000 6000 2    50   Input ~ 0
TX
$Comp
L Connector:Conn_01x03_Female J106
U 1 1 5D2C211F
P 7250 5050
F 0 "J106" H 7278 5076 50  0000 L CNN
F 1 "Conn_01x03_Female" H 7278 4985 50  0000 L CNN
F 2 "Connector_PinHeader_2.54mm:PinHeader_1x03_P2.54mm_Vertical_SMD_Pin1Left" H 7250 5050 50  0001 C CNN
F 3 "~" H 7250 5050 50  0001 C CNN
	1    7250 5050
	1    0    0    -1  
$EndComp
$Comp
L power:GND #PWR0177
U 1 1 5D2C2211
P 7050 5150
F 0 "#PWR0177" H 7050 4900 50  0001 C CNN
F 1 "GND" H 7055 4977 50  0000 C CNN
F 2 "" H 7050 5150 50  0001 C CNN
F 3 "" H 7050 5150 50  0001 C CNN
	1    7050 5150
	1    0    0    -1  
$EndComp
$Comp
L Device:R R120
U 1 1 5D2C249B
P 6900 5050
F 0 "R120" V 6800 5150 50  0000 R CNN
F 1 "470" V 6900 5100 50  0000 R CNN
F 2 "Resistor_SMD:R_0603_1608Metric_Pad1.05x0.95mm_HandSolder" V 6830 5050 50  0001 C CNN
F 3 "~" H 6900 5050 50  0001 C CNN
	1    6900 5050
	0    -1   -1   0   
$EndComp
$Comp
L Device:R R119
U 1 1 5D2C27DA
P 6900 4950
F 0 "R119" V 7000 5050 50  0000 R CNN
F 1 "470" V 6900 5000 50  0000 R CNN
F 2 "Resistor_SMD:R_0603_1608Metric_Pad1.05x0.95mm_HandSolder" V 6830 4950 50  0001 C CNN
F 3 "~" H 6900 4950 50  0001 C CNN
	1    6900 4950
	0    -1   -1   0   
$EndComp
Text GLabel 6750 4950 0    50   Input ~ 0
RX
Text GLabel 6750 5050 0    50   Input ~ 0
TX
Text GLabel 4200 6000 2    50   Input ~ 0
STEPPER_SW
Wire Wire Line
	4550 1100 4650 1100
Wire Wire Line
	4650 1000 4650 1100
Wire Wire Line
	4000 2150 3700 2150
Wire Wire Line
	2600 4200 4200 4200
Wire Wire Line
	2600 4300 4200 4300
Wire Wire Line
	2600 5700 2700 5700
Wire Wire Line
	2600 4900 2800 4900
$Comp
L Device:R R121
U 1 1 5D731528
P 2850 6200
F 0 "R121" H 2920 6246 50  0000 L CNN
F 1 "0R" H 2920 6155 50  0000 L CNN
F 2 "Resistor_SMD:R_0805_2012Metric_Pad1.15x1.40mm_HandSolder" V 2780 6200 50  0001 C CNN
F 3 "~" H 2850 6200 50  0001 C CNN
	1    2850 6200
	0    1    1    0   
$EndComp
Wire Wire Line
	2700 6200 2600 6200
Wire Wire Line
	5550 1200 5650 1200
Wire Wire Line
	5550 3700 5650 3700
Wire Wire Line
	5550 3600 5650 3600
Wire Wire Line
	5550 3500 5650 3500
Text GLabel 5650 3700 2    50   Input ~ 0
SPI_MISO
Text GLabel 5650 3500 2    50   Input ~ 0
SPI_SCK
Text GLabel 5650 3600 2    50   Input ~ 0
SPI_MOSI
Wire Wire Line
	3200 5300 2600 5300
Wire Wire Line
	3200 5400 2600 5400
Text GLabel 4200 5500 2    50   Input ~ 0
RAIN_LED
Text GLabel 4200 5300 2    50   Input ~ 0
PD2_TRANS
Text GLabel 4200 5400 2    50   Input ~ 0
PD1_TRANS
$Comp
L power:+3.3V #PWR0146
U 1 1 5DA374E9
P 1700 2450
F 0 "#PWR0146" H 1700 2300 50  0001 C CNN
F 1 "+3.3V" H 1715 2623 50  0000 C CNN
F 2 "" H 1700 2450 50  0001 C CNN
F 3 "" H 1700 2450 50  0001 C CNN
	1    1700 2450
	1    0    0    -1  
$EndComp
Wire Wire Line
	2700 2550 2800 2550
Wire Wire Line
	2700 2550 2600 2550
Connection ~ 2700 2550
Wire Wire Line
	1700 2450 1700 2550
Connection ~ 1700 2550
Wire Wire Line
	1700 2550 1700 2650
$Comp
L Device:R_Pack04 RN102
U 1 1 5DA0A1BD
P 3400 5500
F 0 "RN102" V 2983 5500 50  0000 C CNN
F 1 "R_Pack04" V 3074 5500 50  0000 C CNN
F 2 "Resistor_SMD:R_Array_Convex_4x1206" V 3675 5500 50  0001 C CNN
F 3 "~" H 3400 5500 50  0001 C CNN
	1    3400 5500
	0    -1   1    0   
$EndComp
Wire Wire Line
	4000 2150 4000 2250
Wire Wire Line
	4200 5300 3600 5300
Wire Wire Line
	3600 5400 4200 5400
Wire Wire Line
	4200 5500 3600 5500
Wire Wire Line
	2800 4900 2800 5000
Wire Wire Line
	5300 4900 5300 5000
Wire Wire Line
	2900 4800 2900 4900
Wire Wire Line
	2900 4900 4800 4900
Connection ~ 4800 4900
Wire Wire Line
	2800 5000 5300 5000
Connection ~ 5300 5000
Wire Wire Line
	5300 5000 5300 5100
$Comp
L Device:R_Pack04 RN101
U 1 1 5D6400AC
P 3000 4600
F 0 "RN101" V 2583 4600 50  0000 C CNN
F 1 "R_Pack04" V 2674 4600 50  0000 C CNN
F 2 "Resistor_SMD:R_Array_Convex_4x1206" V 3275 4600 50  0001 C CNN
F 3 "~" H 3000 4600 50  0001 C CNN
	1    3000 4600
	0    -1   1    0   
$EndComp
Wire Wire Line
	2600 4600 2800 4600
Wire Wire Line
	2600 4700 2800 4700
Wire Wire Line
	2600 4500 2800 4500
Wire Wire Line
	3800 4500 3800 3050
Wire Wire Line
	3700 4700 4200 4700
Text GLabel 4200 4700 2    50   Input ~ 0
SPI_SCK
Wire Wire Line
	3800 4500 4200 4500
Wire Wire Line
	3900 4600 4200 4600
Text GLabel 4200 4500 2    50   Input ~ 0
SPI_MOSI
Wire Wire Line
	3900 4600 3900 2950
Wire Wire Line
	3700 3150 3700 4700
Text GLabel 4200 4600 2    50   Input ~ 0
SPI_MISO
Connection ~ 3800 4500
Connection ~ 3900 4600
Connection ~ 3700 4700
Wire Wire Line
	2600 5200 2700 5200
Connection ~ 2700 5200
Wire Wire Line
	2700 5200 2700 5700
Wire Wire Line
	3200 4500 3800 4500
Wire Wire Line
	3200 4600 3900 4600
Wire Wire Line
	3200 4700 3700 4700
Wire Wire Line
	3450 1950 3450 1650
Wire Wire Line
	3750 1650 3750 1850
$Comp
L Device:R_Pack04 RN103
U 1 1 5DCF7B55
P 5050 1200
F 0 "RN103" V 4633 1200 50  0000 C CNN
F 1 "R_Pack04" V 4724 1200 50  0000 C CNN
F 2 "Resistor_SMD:R_Array_Convex_4x1206" V 5325 1200 50  0001 C CNN
F 3 "~" H 5050 1200 50  0001 C CNN
	1    5050 1200
	0    -1   1    0   
$EndComp
Wire Wire Line
	5550 1200 5550 1100
Wire Wire Line
	3450 1950 5650 1950
Wire Wire Line
	3750 1850 5650 1850
Wire Wire Line
	4650 1100 4850 1100
Connection ~ 4650 1100
Wire Wire Line
	4850 1200 4650 1200
Wire Wire Line
	4550 1400 5650 1400
Wire Wire Line
	4750 2150 5650 2150
Wire Wire Line
	3700 2250 3700 2150
Connection ~ 3700 2150
Wire Wire Line
	3700 2150 2150 2150
Wire Wire Line
	4000 2250 5350 2250
Connection ~ 4000 2250
Wire Wire Line
	4000 2250 4000 5600
Wire Wire Line
	2600 5600 3200 5600
Wire Wire Line
	3600 5600 4000 5600
Wire Wire Line
	5550 1100 5250 1100
Wire Wire Line
	4750 1000 4850 1000
Wire Wire Line
	4750 1000 4750 2150
Wire Wire Line
	5250 1000 5350 1000
Wire Wire Line
	5350 1000 5350 2250
Wire Wire Line
	4550 1500 5650 1500
Wire Wire Line
	4850 1300 4650 1300
Wire Wire Line
	4650 1300 4650 1200
Connection ~ 4650 1200
Wire Wire Line
	4650 1200 4550 1200
Wire Wire Line
	5250 1300 5650 1300
Text GLabel 7050 4400 0    50   Input ~ 0
RAIN_PD2
Wire Wire Line
	6950 4500 7050 4500
$Comp
L power:GND #PWR0165
U 1 1 5D0EA1D1
P 6950 4600
F 0 "#PWR0165" H 6950 4350 50  0001 C CNN
F 1 "GND" H 6955 4427 50  0000 C CNN
F 2 "" H 6950 4600 50  0001 C CNN
F 3 "" H 6950 4600 50  0001 C CNN
	1    6950 4600
	-1   0    0    -1  
$EndComp
$Comp
L Connector:Conn_01x04_Male J104
U 1 1 5D0E823B
P 7250 4300
F 0 "J104" H 7358 4581 50  0000 C CNN
F 1 "Conn_01x04_Male" H 7358 4490 50  0000 C CNN
F 2 "Connector_Molex:Molex_KK-254_AE-6410-04A_1x04_P2.54mm_Vertical" H 7250 4300 50  0001 C CNN
F 3 "~" H 7250 4300 50  0001 C CNN
	1    7250 4300
	-1   0    0    -1  
$EndComp
Wire Wire Line
	6950 4600 6950 4500
Text GLabel 7050 4200 0    50   Input ~ 0
RAIN_LED
Wire Wire Line
	1700 2550 2300 2550
Wire Wire Line
	2700 2550 2700 3250
$Comp
L Device:R R122
U 1 1 5DEDEFD2
P 2450 3250
F 0 "R122" V 2550 3150 50  0000 L CNN
F 1 "0R" V 2450 3200 50  0000 L CNN
F 2 "Resistor_SMD:R_0805_2012Metric_Pad1.15x1.40mm_HandSolder" V 2380 3250 50  0001 C CNN
F 3 "~" H 2450 3250 50  0001 C CNN
	1    2450 3250
	0    1    1    0   
$EndComp
Wire Wire Line
	2300 3250 2200 3250
Wire Wire Line
	2600 3250 2700 3250
Connection ~ 2700 3250
Wire Wire Line
	2700 3250 2700 5200
$EndSCHEMATC
