EESchema Schematic File Version 5
LIBS:IoDachlukeV2-cache
EELAYER 29 0
EELAYER END
$Descr A4 11693 8268
encoding utf-8
Sheet 2 4
Title ""
Date ""
Rev ""
Comp ""
Comment1 ""
Comment2 ""
Comment3 ""
Comment4 ""
$EndDescr
$Comp
L IoDachlukeV2:L6482H U201
U 1 1 5CFDB8FB
P 4550 3450
F 0 "U201" H 4700 4915 50  0000 C CNN
F 1 "L6482H" H 4700 4824 50  0000 C CNN
F 2 "IoDachlukeV2:HTSSOP-38_1EP_4.4x9.7mm_P0.5mm" H 4550 3450 50  0001 C CNN
F 3 "https://www.st.com/resource/en/datasheet/l6482.pdf" H 4550 3450 50  0001 C CNN
	1    4550 3450
	1    0    0    -1  
$EndComp
$Comp
L Device:R Rsensea201
U 1 1 5CFECB5E
P 8050 5250
F 0 "Rsensea201" H 7980 5204 50  0000 R CNN
F 1 "200m" H 7980 5295 50  0000 R CNN
F 2 "Resistor_SMD:R_2512_6332Metric_Pad1.52x3.35mm_HandSolder" V 7980 5250 50  0001 C CNN
F 3 "~" H 8050 5250 50  0001 C CNN
	1    8050 5250
	1    0    0    1   
$EndComp
$Comp
L Device:R Rsenseb201
U 1 1 5CFECC21
P 8200 5250
F 0 "Rsenseb201" H 8130 5204 50  0000 R CNN
F 1 "200m" H 8130 5295 50  0000 R CNN
F 2 "Resistor_SMD:R_2512_6332Metric_Pad1.52x3.35mm_HandSolder" V 8130 5250 50  0001 C CNN
F 3 "~" H 8200 5250 50  0001 C CNN
	1    8200 5250
	-1   0    0    1   
$EndComp
$Comp
L power:GND #PWR0101
U 1 1 5CFECC5F
P 6450 4850
F 0 "#PWR0101" H 6450 4600 50  0001 C CNN
F 1 "GND" H 6455 4677 50  0000 C CNN
F 2 "" H 6450 4850 50  0001 C CNN
F 3 "" H 6450 4850 50  0001 C CNN
	1    6450 4850
	1    0    0    -1  
$EndComp
Wire Wire Line
	6450 4850 6450 4750
Wire Wire Line
	6350 4650 6450 4650
Wire Wire Line
	6450 4750 6350 4750
Connection ~ 6450 4750
Wire Wire Line
	6450 4750 6450 4650
Wire Wire Line
	3050 2450 2950 2450
Wire Wire Line
	2950 2450 2950 2550
Wire Wire Line
	2950 2850 3050 2850
Wire Wire Line
	3050 2550 2950 2550
Connection ~ 2950 2550
Wire Wire Line
	2950 2550 2950 2850
$Comp
L Device:C C201
U 1 1 5CFED540
P 1850 2900
F 0 "C201" H 1735 2854 50  0000 R CNN
F 1 "100n" H 1735 2945 50  0000 R CNN
F 2 "Capacitor_SMD:C_0603_1608Metric_Pad1.05x0.95mm_HandSolder" H 1888 2750 50  0001 C CNN
F 3 "~" H 1850 2900 50  0001 C CNN
	1    1850 2900
	1    0    0    1   
$EndComp
$Comp
L power:GND #PWR0102
U 1 1 5CFED75D
P 1850 3050
F 0 "#PWR0102" H 1850 2800 50  0001 C CNN
F 1 "GND" H 1855 2877 50  0000 C CNN
F 2 "" H 1850 3050 50  0001 C CNN
F 3 "" H 1850 3050 50  0001 C CNN
	1    1850 3050
	1    0    0    -1  
$EndComp
$Comp
L power:+3.3V #PWR0103
U 1 1 5CFED7AF
P 1850 2050
F 0 "#PWR0103" H 1850 1900 50  0001 C CNN
F 1 "+3.3V" H 1800 2200 50  0000 C CNN
F 2 "" H 1850 2050 50  0001 C CNN
F 3 "" H 1850 2050 50  0001 C CNN
	1    1850 2050
	1    0    0    -1  
$EndComp
Wire Wire Line
	1850 2050 1850 2450
Wire Wire Line
	1850 2750 1850 2450
Connection ~ 1850 2450
Wire Wire Line
	1850 2450 2950 2450
Connection ~ 2950 2450
Wire Wire Line
	2950 2250 3050 2250
$Comp
L Device:C C202
U 1 1 5CFEEBB4
P 2350 2900
F 0 "C202" H 2465 2946 50  0000 L CNN
F 1 "470n" H 2465 2855 50  0000 L CNN
F 2 "Capacitor_SMD:C_0603_1608Metric_Pad1.05x0.95mm_HandSolder" H 2388 2750 50  0001 C CNN
F 3 "~" H 2350 2900 50  0001 C CNN
	1    2350 2900
	1    0    0    -1  
$EndComp
$Comp
L power:GND #PWR0104
U 1 1 5CFEEC35
P 2350 3050
F 0 "#PWR0104" H 2350 2800 50  0001 C CNN
F 1 "GND" V 2355 2922 50  0000 R CNN
F 2 "" H 2350 3050 50  0001 C CNN
F 3 "" H 2350 3050 50  0001 C CNN
	1    2350 3050
	1    0    0    -1  
$EndComp
Wire Wire Line
	7050 2550 6850 2550
$Comp
L Diode:BAT54S D201
U 1 1 5CFEFE8C
P 6850 2150
F 0 "D201" V 6600 1850 50  0000 L CNN
F 1 "MMBD7000HS-7-F" V 6700 1350 50  0000 L CNN
F 2 "Package_TO_SOT_SMD:SOT-23" H 6925 2275 50  0001 L CNN
F 3 "https://www.mouser.at/datasheet/2/115/ds31782-65062.pdf" H 6730 2150 50  0001 C CNN
	1    6850 2150
	0    1    1    0   
$EndComp
Wire Wire Line
	6350 2250 6450 2250
Wire Wire Line
	6450 1350 6850 1350
Wire Wire Line
	6850 1350 6850 1850
Wire Wire Line
	6350 2450 6650 2450
Wire Wire Line
	6850 2450 6850 2550
Connection ~ 6850 2550
Wire Wire Line
	6850 2550 6350 2550
Connection ~ 6850 1350
$Comp
L power:VBUS #PWR0106
U 1 1 5CFF517C
P 6450 1050
F 0 "#PWR0106" H 6450 900 50  0001 C CNN
F 1 "VBUS" H 6465 1223 50  0000 C CNN
F 2 "" H 6450 1050 50  0001 C CNN
F 3 "" H 6450 1050 50  0001 C CNN
	1    6450 1050
	1    0    0    -1  
$EndComp
Wire Wire Line
	7500 2950 6350 2950
Wire Wire Line
	8450 3850 8450 4050
Wire Wire Line
	7800 3850 7800 3950
Wire Wire Line
	7500 3650 7500 3550
Wire Wire Line
	7500 3550 6350 3550
Wire Wire Line
	6350 3650 7400 3650
Wire Wire Line
	7400 3650 7400 4050
Wire Wire Line
	7400 4050 7800 4050
Connection ~ 7800 4050
Wire Wire Line
	7800 4050 7800 4100
Wire Wire Line
	7500 4300 7300 4300
Wire Wire Line
	7300 4300 7300 3750
Wire Wire Line
	7300 3750 6350 3750
Wire Wire Line
	9050 2550 9050 3350
Wire Wire Line
	6350 3950 7200 3950
Wire Wire Line
	7200 3950 7200 5650
Wire Wire Line
	7200 5650 8850 5650
Wire Wire Line
	8850 3650 8750 3650
Wire Wire Line
	8450 4050 8950 4050
Wire Wire Line
	8950 4050 8950 5750
Wire Wire Line
	8950 5750 7100 5750
Wire Wire Line
	7100 5750 7100 4050
Wire Wire Line
	7100 4050 6350 4050
Connection ~ 8450 4050
Wire Wire Line
	8450 4050 8450 4100
Wire Wire Line
	6350 4150 7000 4150
Wire Wire Line
	7000 4150 7000 5850
Wire Wire Line
	7000 5850 9050 5850
Wire Wire Line
	9050 5850 9050 4300
Wire Wire Line
	9050 4300 8750 4300
Wire Wire Line
	8050 5100 8050 4900
$Comp
L power:GND #PWR0107
U 1 1 5D01E390
P 8050 5400
F 0 "#PWR0107" H 8050 5150 50  0001 C CNN
F 1 "GND" H 8055 5227 50  0000 C CNN
F 2 "" H 8050 5400 50  0001 C CNN
F 3 "" H 8050 5400 50  0001 C CNN
	1    8050 5400
	1    0    0    -1  
$EndComp
$Comp
L power:GND #PWR0108
U 1 1 5D01E3BB
P 8200 5400
F 0 "#PWR0108" H 8200 5150 50  0001 C CNN
F 1 "GND" H 8205 5227 50  0000 C CNN
F 2 "" H 8200 5400 50  0001 C CNN
F 3 "" H 8200 5400 50  0001 C CNN
	1    8200 5400
	1    0    0    -1  
$EndComp
Wire Wire Line
	6350 3350 9050 3350
Wire Wire Line
	8200 5100 8200 5000
Wire Wire Line
	8050 4900 6900 4900
Wire Wire Line
	6900 4900 6900 4350
Wire Wire Line
	6900 4350 6350 4350
Connection ~ 8050 4900
Wire Wire Line
	6350 4450 6800 4450
Wire Wire Line
	6800 4450 6800 5000
Wire Wire Line
	6800 5000 8200 5000
Connection ~ 8200 5000
Connection ~ 7800 3950
Wire Wire Line
	7800 3950 7800 4050
$Comp
L power:GND #PWR0109
U 1 1 5D0761F0
P 2950 4850
F 0 "#PWR0109" H 2950 4600 50  0001 C CNN
F 1 "GND" H 2955 4677 50  0000 C CNN
F 2 "" H 2950 4850 50  0001 C CNN
F 3 "" H 2950 4850 50  0001 C CNN
	1    2950 4850
	1    0    0    -1  
$EndComp
Wire Wire Line
	2950 4850 2950 4750
Wire Wire Line
	2950 4250 3050 4250
Wire Wire Line
	3050 4750 2950 4750
Connection ~ 2950 4750
Wire Wire Line
	2950 4750 2950 4250
$Comp
L Device:R R202
U 1 1 5D0857C3
P 2050 2900
F 0 "R202" H 2120 2946 50  0000 L CNN
F 1 "33k" H 2120 2855 50  0000 L CNN
F 2 "Resistor_SMD:R_0603_1608Metric_Pad1.05x0.95mm_HandSolder" V 1980 2900 50  0001 C CNN
F 3 "~" H 2050 2900 50  0001 C CNN
	1    2050 2900
	1    0    0    -1  
$EndComp
$Comp
L Device:R R201
U 1 1 5D0858CF
P 2050 2200
F 0 "R201" H 2120 2246 50  0000 L CNN
F 1 "820k" H 2120 2155 50  0000 L CNN
F 2 "Resistor_SMD:R_0603_1608Metric_Pad1.05x0.95mm_HandSolder" V 1980 2200 50  0001 C CNN
F 3 "~" H 2050 2200 50  0001 C CNN
	1    2050 2200
	1    0    0    -1  
$EndComp
$Comp
L power:GND #PWR0110
U 1 1 5D09F118
P 2050 3050
F 0 "#PWR0110" H 2050 2800 50  0001 C CNN
F 1 "GND" H 2055 2877 50  0000 C CNN
F 2 "" H 2050 3050 50  0001 C CNN
F 3 "" H 2050 3050 50  0001 C CNN
	1    2050 3050
	1    0    0    -1  
$EndComp
Wire Wire Line
	2050 2650 3050 2650
Wire Wire Line
	2050 2650 2050 2750
Wire Wire Line
	2050 2650 2050 2350
Connection ~ 2050 2650
Wire Wire Line
	3050 3050 2850 3050
Wire Wire Line
	3050 3150 2850 3150
Wire Wire Line
	3050 3250 2850 3250
Wire Wire Line
	3050 3350 2850 3350
Wire Wire Line
	3050 3550 2850 3550
Wire Wire Line
	3050 3650 2850 3650
Wire Wire Line
	3050 3750 2850 3750
Wire Wire Line
	3050 3950 2850 3950
Wire Wire Line
	3050 4050 2850 4050
Wire Wire Line
	3050 4450 2850 4450
Wire Wire Line
	3050 4550 2850 4550
Text HLabel 2850 3050 0    50   Input ~ 0
STEPPER_~CS
Text HLabel 2850 3150 0    50   Input ~ 0
STEPPER_SCK
Text HLabel 2850 3250 0    50   Input ~ 0
STEPPER_MOSI
Text HLabel 2850 3350 0    50   Input ~ 0
STEPPER_MISO
Text HLabel 2850 3550 0    50   Input ~ 0
stbyreset
Text HLabel 2850 3650 0    50   Input ~ 0
flag
Text HLabel 2850 3750 0    50   Input ~ 0
busysync
Text HLabel 2850 3950 0    50   Input ~ 0
stck
Text HLabel 2850 4050 0    50   Input ~ 0
sw
Text HLabel 2850 4450 0    50   Input ~ 0
oscin
Text HLabel 2850 4550 0    50   Input ~ 0
oscout
Wire Wire Line
	7800 3950 9250 3950
Wire Wire Line
	8950 4050 9250 4050
Connection ~ 8950 4050
Text HLabel 9250 3950 2    50   Input ~ 0
OUTB1
Text HLabel 9250 4050 2    50   Input ~ 0
OUTB2
Connection ~ 6450 1350
Wire Wire Line
	6450 1350 6450 2250
Wire Wire Line
	6450 1250 6450 1350
$Comp
L power:GND #PWR0202
U 1 1 5D0F3407
P 8850 3450
F 0 "#PWR0202" H 8850 3200 50  0001 C CNN
F 1 "GND" V 8855 3322 50  0000 R CNN
F 2 "" H 8850 3450 50  0001 C CNN
F 3 "" H 8850 3450 50  0001 C CNN
	1    8850 3450
	0    -1   -1   0   
$EndComp
$Comp
L Device:C C206
U 1 1 5D0F65EA
P 8700 3450
F 0 "C206" H 8815 3496 50  0000 L CNN
F 1 "220n" H 8815 3405 50  0000 L CNN
F 2 "Capacitor_SMD:C_1210_3225Metric_Pad1.42x2.65mm_HandSolder" H 8738 3300 50  0001 C CNN
F 3 "~" H 8700 3450 50  0001 C CNN
	1    8700 3450
	0    1    1    0   
$EndComp
$Comp
L Device:C Cfly201
U 1 1 5CFECEA1
P 6650 2300
F 0 "Cfly201" H 6750 2200 50  0000 C CNN
F 1 "47n" H 6750 2100 50  0000 C CNN
F 2 "Capacitor_SMD:C_0805_2012Metric_Pad1.15x1.40mm_HandSolder" H 6688 2150 50  0001 C CNN
F 3 "~" H 6650 2300 50  0001 C CNN
	1    6650 2300
	1    0    0    -1  
$EndComp
$Comp
L Transistor_FET:CSD19537Q3 Q207
U 1 1 5D236CDF
P 8550 3650
F 0 "Q207" H 8756 3696 50  0000 L CNN
F 1 "CSD19538Q3A" H 8756 3605 50  0000 L CNN
F 2 "Package_SON:VSON-8_3.3x3.3mm_P0.65mm_NexFET" H 8750 3575 50  0001 L CIN
F 3 "http://www.ti.com/lit/ds/symlink/csd19537q3.pdf" V 8550 3650 50  0001 L CNN
	1    8550 3650
	-1   0    0    -1  
$EndComp
$Comp
L Transistor_FET:CSD19537Q3 Q203
U 1 1 5D236CE0
P 7700 3650
F 0 "Q203" H 7906 3696 50  0000 L CNN
F 1 "CSD19538Q3A" H 7906 3605 50  0000 L CNN
F 2 "Package_SON:VSON-8_3.3x3.3mm_P0.65mm_NexFET" H 7900 3575 50  0001 L CIN
F 3 "http://www.ti.com/lit/ds/symlink/csd19537q3.pdf" V 7700 3650 50  0001 L CNN
	1    7700 3650
	1    0    0    -1  
$EndComp
$Comp
L Transistor_FET:CSD19537Q3 Q208
U 1 1 5D238969
P 8550 4300
F 0 "Q208" H 8756 4346 50  0000 L CNN
F 1 "CSD19538Q3A" H 8756 4255 50  0000 L CNN
F 2 "Package_SON:VSON-8_3.3x3.3mm_P0.65mm_NexFET" H 8750 4225 50  0001 L CIN
F 3 "http://www.ti.com/lit/ds/symlink/csd19537q3.pdf" V 8550 4300 50  0001 L CNN
	1    8550 4300
	-1   0    0    -1  
$EndComp
$Comp
L Transistor_FET:CSD19537Q3 Q204
U 1 1 5D23896A
P 7700 4300
F 0 "Q204" H 7906 4346 50  0000 L CNN
F 1 "CSD19538Q3A" H 7906 4255 50  0000 L CNN
F 2 "Package_SON:VSON-8_3.3x3.3mm_P0.65mm_NexFET" H 7900 4225 50  0001 L CIN
F 3 "http://www.ti.com/lit/ds/symlink/csd19537q3.pdf" V 7700 4300 50  0001 L CNN
	1    7700 4300
	1    0    0    -1  
$EndComp
$Comp
L Device:Net-Tie_2 NT201
U 1 1 5D0BD72E
P 6450 1150
F 0 "NT201" V 6404 1194 50  0000 L CNN
F 1 "Net-Tie_2" V 6495 1194 50  0000 L CNN
F 2 "NetTie:NetTie-2_SMD_Pad2.0mm" H 6450 1150 50  0001 C CNN
F 3 "~" H 6450 1150 50  0001 C CNN
	1    6450 1150
	0    1    1    0   
$EndComp
Wire Wire Line
	2050 1350 2950 1350
Wire Wire Line
	2050 1350 2050 2050
Wire Wire Line
	8200 5000 8200 4800
Wire Wire Line
	8200 4800 7800 4800
Wire Wire Line
	8200 4800 8450 4800
Connection ~ 8200 4800
$Comp
L Device:R R203
U 1 1 5D10F4AD
P 7800 4650
F 0 "R203" H 7870 4696 50  0000 L CNN
F 1 "0R" H 7870 4605 50  0000 L CNN
F 2 "Resistor_SMD:R_1210_3225Metric_Pad1.42x2.65mm_HandSolder" V 7730 4650 50  0001 C CNN
F 3 "~" H 7800 4650 50  0001 C CNN
	1    7800 4650
	1    0    0    -1  
$EndComp
Wire Wire Line
	8450 1750 8550 1750
Connection ~ 8450 1750
$Comp
L Transistor_FET:CSD19537Q3 Q202
U 1 1 5D235216
P 7700 2550
F 0 "Q202" H 7906 2596 50  0000 L CNN
F 1 "CSD19538Q3A" H 7906 2505 50  0000 L CNN
F 2 "Package_SON:VSON-8_3.3x3.3mm_P0.65mm_NexFET" H 7900 2475 50  0001 L CIN
F 3 "http://www.ti.com/lit/ds/symlink/csd19537q3.pdf" V 7700 2550 50  0001 L CNN
	1    7700 2550
	1    0    0    -1  
$EndComp
$Comp
L Transistor_FET:CSD19537Q3 Q206
U 1 1 5D235215
P 8550 2550
F 0 "Q206" H 8756 2596 50  0000 L CNN
F 1 "CSD19538Q3A" H 8756 2505 50  0000 L CNN
F 2 "Package_SON:VSON-8_3.3x3.3mm_P0.65mm_NexFET" H 8750 2475 50  0001 L CIN
F 3 "http://www.ti.com/lit/ds/symlink/csd19537q3.pdf" V 8550 2550 50  0001 L CNN
	1    8550 2550
	-1   0    0    -1  
$EndComp
$Comp
L Transistor_FET:CSD19537Q3 Q205
U 1 1 5D231D71
P 8550 1950
F 0 "Q205" H 8756 1996 50  0000 L CNN
F 1 "CSD19538Q3A" H 8756 1905 50  0000 L CNN
F 2 "Package_SON:VSON-8_3.3x3.3mm_P0.65mm_NexFET" H 8750 1875 50  0001 L CIN
F 3 "http://www.ti.com/lit/ds/symlink/csd19537q3.pdf" V 8550 1950 50  0001 L CNN
	1    8550 1950
	-1   0    0    -1  
$EndComp
$Comp
L Transistor_FET:CSD19537Q3 Q201
U 1 1 5D22F9F4
P 7700 1950
F 0 "Q201" H 7906 1996 50  0000 L CNN
F 1 "CSD19538Q3A" H 7906 1905 50  0000 L CNN
F 2 "Package_SON:VSON-8_3.3x3.3mm_P0.65mm_NexFET" H 7900 1875 50  0001 L CIN
F 3 "http://www.ti.com/lit/ds/symlink/csd19537q3.pdf" V 7700 1950 50  0001 L CNN
	1    7700 1950
	1    0    0    -1  
$EndComp
Wire Wire Line
	8200 3450 8450 3450
Wire Wire Line
	8200 1750 8450 1750
$Comp
L Device:C C205
U 1 1 5D0F5C85
P 8700 1750
F 0 "C205" H 8815 1796 50  0000 L CNN
F 1 "220n" H 8815 1705 50  0000 L CNN
F 2 "Capacitor_SMD:C_1210_3225Metric_Pad1.42x2.65mm_HandSolder" H 8738 1600 50  0001 C CNN
F 3 "~" H 8700 1750 50  0001 C CNN
	1    8700 1750
	0    1    1    0   
$EndComp
$Comp
L Device:CP C204
U 1 1 5D0F5325
P 7600 1600
F 0 "C204" H 7718 1646 50  0000 L CNN
F 1 "39u 160VDC" H 7718 1555 50  0000 L CNN
F 2 "Capacitor_SMD:C_Elec_10x10.2" H 7638 1450 50  0001 C CNN
F 3 "~" H 7600 1600 50  0001 C CNN
	1    7600 1600
	1    0    0    -1  
$EndComp
$Comp
L power:GND #PWR0201
U 1 1 5D0F24CF
P 8850 1750
F 0 "#PWR0201" H 8850 1500 50  0001 C CNN
F 1 "GND" V 8855 1622 50  0000 R CNN
F 2 "" H 8850 1750 50  0001 C CNN
F 3 "" H 8850 1750 50  0001 C CNN
	1    8850 1750
	0    -1   -1   0   
$EndComp
Wire Wire Line
	8200 1750 8200 3450
Connection ~ 8200 1750
Wire Wire Line
	7800 1750 8200 1750
Connection ~ 8200 3450
Connection ~ 7600 1350
Wire Wire Line
	8200 1350 8200 1750
Wire Wire Line
	7600 1350 8200 1350
Wire Wire Line
	7200 1350 7050 1350
Connection ~ 7200 1350
Wire Wire Line
	7200 1450 7200 1350
Wire Wire Line
	7600 1350 7200 1350
Wire Wire Line
	7600 1450 7600 1350
$Comp
L power:GND #PWR0113
U 1 1 5D117E3A
P 7600 1750
F 0 "#PWR0113" H 7600 1500 50  0001 C CNN
F 1 "GND" H 7605 1577 50  0000 C CNN
F 2 "" H 7600 1750 50  0001 C CNN
F 3 "" H 7600 1750 50  0001 C CNN
	1    7600 1750
	1    0    0    -1  
$EndComp
$Comp
L power:GND #PWR0112
U 1 1 5D117DDC
P 7200 1750
F 0 "#PWR0112" H 7200 1500 50  0001 C CNN
F 1 "GND" H 7205 1577 50  0000 C CNN
F 2 "" H 7200 1750 50  0001 C CNN
F 3 "" H 7200 1750 50  0001 C CNN
	1    7200 1750
	1    0    0    -1  
$EndComp
Connection ~ 7050 1350
$Comp
L Device:C C203
U 1 1 5D117AE5
P 7200 1600
F 0 "C203" H 7315 1646 50  0000 L CNN
F 1 "220n" H 7315 1555 50  0000 L CNN
F 2 "Capacitor_SMD:C_1210_3225Metric_Pad1.42x2.65mm_HandSolder" H 7238 1450 50  0001 C CNN
F 3 "~" H 7200 1600 50  0001 C CNN
	1    7200 1600
	1    0    0    -1  
$EndComp
Text HLabel 9250 2300 2    50   Input ~ 0
OUTA2
Text HLabel 9250 2200 2    50   Input ~ 0
OUTA1
Connection ~ 8950 2300
Wire Wire Line
	9250 2300 8950 2300
Wire Wire Line
	7800 2200 9250 2200
Wire Wire Line
	7800 2200 7800 2300
Connection ~ 7800 2200
Wire Wire Line
	6350 3250 8950 3250
Wire Wire Line
	6350 3150 8850 3150
Wire Wire Line
	7500 2550 7500 2950
Wire Wire Line
	7400 2850 6350 2850
Wire Wire Line
	7400 2300 7800 2300
Wire Wire Line
	7400 2300 7400 2850
Wire Wire Line
	8750 2550 9050 2550
Wire Wire Line
	8450 2300 8450 2350
Connection ~ 8450 2300
Wire Wire Line
	8950 2300 8450 2300
Wire Wire Line
	8950 3250 8950 2300
Wire Wire Line
	8850 1950 8850 3150
Wire Wire Line
	8750 1950 8850 1950
Wire Wire Line
	7800 2300 7800 2350
Connection ~ 7800 2300
Wire Wire Line
	7300 1950 7500 1950
Wire Wire Line
	7300 2750 7300 1950
Wire Wire Line
	7800 2150 7800 2200
Wire Wire Line
	7800 3450 8200 3450
Wire Wire Line
	8450 2150 8450 2300
Wire Wire Line
	6350 2750 7300 2750
Wire Wire Line
	7050 1350 6850 1350
Wire Wire Line
	7050 1850 7050 1350
Wire Wire Line
	7050 2150 7050 2550
$Comp
L Device:C Cboot201
U 1 1 5CFEF2BD
P 7050 2000
F 0 "Cboot201" H 7050 2100 50  0000 R CNN
F 1 "470n" H 7050 2200 50  0000 R CNN
F 2 "Capacitor_SMD:C_0603_1608Metric_Pad1.05x0.95mm_HandSolder" H 7088 1850 50  0001 C CNN
F 3 "~" H 7050 2000 50  0001 C CNN
	1    7050 2000
	-1   0    0    1   
$EndComp
Wire Wire Line
	8050 4900 8050 3050
$Comp
L Device:R R204
U 1 1 5D140A43
P 7800 2900
F 0 "R204" H 7870 2946 50  0000 L CNN
F 1 "0R" H 7870 2855 50  0000 L CNN
F 2 "Resistor_SMD:R_1210_3225Metric_Pad1.42x2.65mm_HandSolder" V 7730 2900 50  0001 C CNN
F 3 "~" H 7800 2900 50  0001 C CNN
	1    7800 2900
	1    0    0    -1  
$EndComp
Wire Wire Line
	7800 3050 8050 3050
Wire Wire Line
	8050 3050 8450 3050
Wire Wire Line
	8450 3050 8450 2750
Connection ~ 8050 3050
$Comp
L Device:R R205
U 1 1 5D177352
P 8850 4650
F 0 "R205" H 8920 4696 50  0000 L CNN
F 1 "0R" H 8920 4605 50  0000 L CNN
F 2 "Resistor_SMD:R_1206_3216Metric_Pad1.42x1.75mm_HandSolder" V 8780 4650 50  0001 C CNN
F 3 "~" H 8850 4650 50  0001 C CNN
	1    8850 4650
	1    0    0    -1  
$EndComp
Wire Wire Line
	8450 4500 8450 4800
Wire Wire Line
	8850 4500 8850 3650
$Comp
L Device:R R206
U 1 1 5D17EDA5
P 8850 4950
F 0 "R206" H 8920 4996 50  0000 L CNN
F 1 "0R" H 8920 4905 50  0000 L CNN
F 2 "Resistor_SMD:R_0805_2012Metric_Pad1.15x1.40mm_HandSolder" V 8780 4950 50  0001 C CNN
F 3 "~" H 8850 4950 50  0001 C CNN
	1    8850 4950
	1    0    0    -1  
$EndComp
Wire Wire Line
	8850 5100 8850 5650
Connection ~ 8450 3450
Wire Wire Line
	8450 3450 8550 3450
Wire Wire Line
	2350 2350 2350 2750
Wire Wire Line
	2350 2350 3050 2350
Wire Wire Line
	2950 1350 2950 2250
Connection ~ 2950 1350
Wire Wire Line
	2950 1350 6450 1350
$EndSCHEMATC
