EESchema Schematic File Version 5
LIBS:IoDachlukeV2-cache
EELAYER 29 0
EELAYER END
$Descr A4 11693 8268
encoding utf-8
Sheet 3 4
Title ""
Date ""
Rev ""
Comp ""
Comment1 ""
Comment2 ""
Comment3 ""
Comment4 ""
$EndDescr
$Comp
L IoDachlukeV2:AP6320x U302
U 1 1 5D000732
P 6900 1950
F 0 "U302" H 6900 2315 50  0000 C CNN
F 1 "AP6320x" H 6900 2224 50  0000 C CNN
F 2 "Package_TO_SOT_SMD:TSOT-23-6_HandSoldering" H 6500 1550 50  0001 C CNN
F 3 "https://www.mouser.at/datasheet/2/115/AP63200-AP63201-AP63203-AP63205-1525010.pdf" H 6500 1550 50  0001 C CNN
	1    6900 1950
	1    0    0    -1  
$EndComp
Wire Wire Line
	7300 1950 7800 1950
Wire Wire Line
	7800 1950 7800 1850
Wire Wire Line
	7800 1850 7700 1850
Connection ~ 7800 1950
Wire Wire Line
	7800 1950 7900 1950
Wire Wire Line
	7400 1850 7300 1850
Wire Wire Line
	7300 2050 8300 2050
Wire Wire Line
	8300 2050 8300 1950
Wire Wire Line
	8300 1950 8200 1950
$Comp
L Device:L L302
U 1 1 5D000A6A
P 8050 1950
F 0 "L302" V 8240 1950 50  0000 C CNN
F 1 "3u9" V 8149 1950 50  0000 C CNN
F 2 "Inductor_SMD:L_Bourns-SRN6028" H 8050 1950 50  0001 C CNN
F 3 "~" H 8050 1950 50  0001 C CNN
	1    8050 1950
	0    -1   -1   0   
$EndComp
$Comp
L Device:C C315
U 1 1 5D000887
P 7550 1850
F 0 "C315" V 7298 1850 50  0000 C CNN
F 1 "100n" V 7389 1850 50  0000 C CNN
F 2 "Capacitor_SMD:C_0603_1608Metric_Pad1.05x0.95mm_HandSolder" H 7588 1700 50  0001 C CNN
F 3 "~" H 7550 1850 50  0001 C CNN
	1    7550 1850
	0    1    1    0   
$EndComp
$Comp
L Device:C C316
U 1 1 5D0015CA
P 8300 2300
F 0 "C316" H 8185 2254 50  0000 R CNN
F 1 "22u" H 8185 2345 50  0000 R CNN
F 2 "Capacitor_SMD:C_0805_2012Metric_Pad1.15x1.40mm_HandSolder" H 8338 2150 50  0001 C CNN
F 3 "~" H 8300 2300 50  0001 C CNN
	1    8300 2300
	1    0    0    1   
$EndComp
$Comp
L Device:C C317
U 1 1 5D001977
P 8500 2300
F 0 "C317" H 8615 2346 50  0000 L CNN
F 1 "22u" H 8615 2255 50  0000 L CNN
F 2 "Capacitor_SMD:C_0805_2012Metric_Pad1.15x1.40mm_HandSolder" H 8538 2150 50  0001 C CNN
F 3 "~" H 8500 2300 50  0001 C CNN
	1    8500 2300
	1    0    0    -1  
$EndComp
$Comp
L power:GND #PWR0115
U 1 1 5D002139
P 8500 2450
F 0 "#PWR0115" H 8500 2200 50  0001 C CNN
F 1 "GND" H 8505 2277 50  0000 C CNN
F 2 "" H 8500 2450 50  0001 C CNN
F 3 "" H 8500 2450 50  0001 C CNN
	1    8500 2450
	1    0    0    -1  
$EndComp
$Comp
L power:GND #PWR0116
U 1 1 5D0021C6
P 8300 2450
F 0 "#PWR0116" H 8300 2200 50  0001 C CNN
F 1 "GND" H 8305 2277 50  0000 C CNN
F 2 "" H 8300 2450 50  0001 C CNN
F 3 "" H 8300 2450 50  0001 C CNN
	1    8300 2450
	1    0    0    -1  
$EndComp
$Comp
L power:GND #PWR0117
U 1 1 5D002253
P 6900 2350
F 0 "#PWR0117" H 6900 2100 50  0001 C CNN
F 1 "GND" H 6905 2177 50  0000 C CNN
F 2 "" H 6900 2350 50  0001 C CNN
F 3 "" H 6900 2350 50  0001 C CNN
	1    6900 2350
	1    0    0    -1  
$EndComp
Wire Wire Line
	8300 2050 8300 2150
Connection ~ 8300 2050
Wire Wire Line
	8500 2150 8500 2050
Wire Wire Line
	8500 2050 8300 2050
$Comp
L Device:C C314
U 1 1 5D002436
P 6400 2200
F 0 "C314" H 6515 2246 50  0000 L CNN
F 1 "1u" H 6515 2155 50  0000 L CNN
F 2 "Capacitor_SMD:C_0603_1608Metric_Pad1.05x0.95mm_HandSolder" H 6438 2050 50  0001 C CNN
F 3 "~" H 6400 2200 50  0001 C CNN
	1    6400 2200
	-1   0    0    -1  
$EndComp
$Comp
L power:GND #PWR0118
U 1 1 5D0027F7
P 6400 2350
F 0 "#PWR0118" H 6400 2100 50  0001 C CNN
F 1 "GND" H 6405 2177 50  0000 C CNN
F 2 "" H 6400 2350 50  0001 C CNN
F 3 "" H 6400 2350 50  0001 C CNN
	1    6400 2350
	1    0    0    -1  
$EndComp
Wire Wire Line
	6400 2050 6400 1950
Wire Wire Line
	6400 1850 6500 1850
Wire Wire Line
	6500 1950 6400 1950
Connection ~ 6400 1950
Wire Wire Line
	6400 1950 6400 1850
$Comp
L power:+12V #PWR0119
U 1 1 5D002E1B
P 6400 1750
F 0 "#PWR0119" H 6400 1600 50  0001 C CNN
F 1 "+12V" H 6415 1923 50  0000 C CNN
F 2 "" H 6400 1750 50  0001 C CNN
F 3 "" H 6400 1750 50  0001 C CNN
	1    6400 1750
	1    0    0    -1  
$EndComp
Wire Wire Line
	6400 1850 6400 1750
Connection ~ 6400 1850
Wire Wire Line
	8500 2050 8500 1850
Connection ~ 8500 2050
$Comp
L power:+3.3V #PWR0120
U 1 1 5D002F7D
P 8500 1850
F 0 "#PWR0120" H 8500 1700 50  0001 C CNN
F 1 "+3.3V" H 8515 2023 50  0000 C CNN
F 2 "" H 8500 1850 50  0001 C CNN
F 3 "" H 8500 1850 50  0001 C CNN
	1    8500 1850
	1    0    0    -1  
$EndComp
Wire Wire Line
	6900 2350 6900 2250
$Comp
L IoDachlukeV2:NCP1034 U301
U 1 1 5D00825B
P 3000 3400
F 0 "U301" H 2950 3027 50  0000 C CNN
F 1 "NCP1034" H 2950 2936 50  0000 C CNN
F 2 "Package_SO:SOIC-16_3.9x9.9mm_P1.27mm" H 3000 3400 50  0001 C CNN
F 3 "https://www.mouser.at/datasheet/2/308/NCP1034-D-81283.pdf" H 3000 3400 50  0001 C CNN
	1    3000 3400
	1    0    0    -1  
$EndComp
$Comp
L Device:R R309
U 1 1 5D008A70
P 4100 3850
F 0 "R309" V 3893 3850 50  0000 C CNN
F 1 "29k" V 3984 3850 50  0000 C CNN
F 2 "Resistor_SMD:R_0603_1608Metric_Pad1.05x0.95mm_HandSolder" V 4030 3850 50  0001 C CNN
F 3 "~" H 4100 3850 50  0001 C CNN
	1    4100 3850
	-1   0    0    1   
$EndComp
$Comp
L Device:C C305
U 1 1 5D008EF7
P 4100 4150
F 0 "C305" V 3848 4150 50  0000 C CNN
F 1 "2n2" V 3939 4150 50  0000 C CNN
F 2 "Capacitor_SMD:C_0603_1608Metric_Pad1.05x0.95mm_HandSolder" H 4138 4000 50  0001 C CNN
F 3 "~" H 4100 4150 50  0001 C CNN
	1    4100 4150
	-1   0    0    1   
$EndComp
$Comp
L Device:C C304
U 1 1 5D009139
P 3900 4000
F 0 "C304" H 3800 4150 50  0000 C CNN
F 1 "56p" V 3739 4000 50  0000 C CNN
F 2 "Capacitor_SMD:C_0603_1608Metric_Pad1.05x0.95mm_HandSolder" H 3938 3850 50  0001 C CNN
F 3 "~" H 3900 4000 50  0001 C CNN
	1    3900 4000
	1    0    0    -1  
$EndComp
Wire Wire Line
	4100 3600 3900 3600
Wire Wire Line
	3900 3600 3900 3850
Wire Wire Line
	4100 3600 4100 3700
Wire Wire Line
	3900 4150 3900 4400
Wire Wire Line
	3900 4400 4100 4400
Wire Wire Line
	4100 4400 4100 4300
Wire Wire Line
	3600 3400 3500 3400
$Comp
L power:GND #PWR0121
U 1 1 5D009AA9
P 3600 3900
F 0 "#PWR0121" H 3600 3650 50  0001 C CNN
F 1 "GND" H 3605 3727 50  0000 C CNN
F 2 "" H 3600 3900 50  0001 C CNN
F 3 "" H 3600 3900 50  0001 C CNN
	1    3600 3900
	1    0    0    -1  
$EndComp
$Comp
L power:GND #PWR0122
U 1 1 5D009BB8
P 2300 3950
F 0 "#PWR0122" H 2300 3700 50  0001 C CNN
F 1 "GND" H 2305 3777 50  0000 C CNN
F 2 "" H 2300 3950 50  0001 C CNN
F 3 "" H 2300 3950 50  0001 C CNN
	1    2300 3950
	1    0    0    -1  
$EndComp
Wire Wire Line
	2300 3950 2300 3600
Wire Wire Line
	2300 3600 2400 3600
$Comp
L Device:C C303
U 1 1 5D009D48
P 2650 2700
F 0 "C303" V 2398 2700 50  0000 C CNN
F 1 "100n" V 2489 2700 50  0000 C CNN
F 2 "Capacitor_SMD:C_0603_1608Metric_Pad1.05x0.95mm_HandSolder" H 2688 2550 50  0001 C CNN
F 3 "~" H 2650 2700 50  0001 C CNN
	1    2650 2700
	0    1    1    0   
$EndComp
$Comp
L power:GND #PWR0123
U 1 1 5D00A427
P 2500 2700
F 0 "#PWR0123" H 2500 2450 50  0001 C CNN
F 1 "GND" V 2505 2572 50  0000 R CNN
F 2 "" H 2500 2700 50  0001 C CNN
F 3 "" H 2500 2700 50  0001 C CNN
	1    2500 2700
	0    1    1    0   
$EndComp
Wire Wire Line
	2800 2700 2900 2700
Wire Wire Line
	2900 2700 2900 2800
Wire Wire Line
	2900 2700 2900 2300
Wire Wire Line
	2900 2300 2200 2300
Wire Wire Line
	2200 2300 2200 3000
Wire Wire Line
	2200 3000 2400 3000
Connection ~ 2900 2700
Wire Wire Line
	2900 2300 3000 2300
Connection ~ 2900 2300
Wire Wire Line
	3200 2700 3000 2700
Wire Wire Line
	3000 2700 3000 2800
Wire Wire Line
	3500 3100 3600 3100
Wire Wire Line
	3600 3100 3600 2700
Wire Wire Line
	3600 2700 3500 2700
Wire Wire Line
	3200 2600 3200 2700
Wire Wire Line
	3600 3600 3900 3600
Connection ~ 3900 3600
Connection ~ 3900 4400
Wire Wire Line
	3600 3600 3500 3600
Wire Wire Line
	3500 3500 3700 3500
Wire Wire Line
	3700 3500 3700 4400
Wire Wire Line
	3700 4400 3900 4400
Wire Wire Line
	3600 3100 4000 3100
Connection ~ 3600 3100
$Comp
L Device:R R308
U 1 1 5D00C381
P 3750 3200
F 0 "R308" V 3543 3200 50  0000 C CNN
F 1 "10k" V 3634 3200 50  0000 C CNN
F 2 "Resistor_SMD:R_0603_1608Metric_Pad1.05x0.95mm_HandSolder" V 3680 3200 50  0001 C CNN
F 3 "~" H 3750 3200 50  0001 C CNN
	1    3750 3200
	0    1    1    0   
$EndComp
Wire Wire Line
	3600 3200 3500 3200
Wire Wire Line
	3900 3200 4000 3200
Wire Wire Line
	4000 3200 4000 3100
Connection ~ 4000 3100
Wire Wire Line
	3900 3300 3500 3300
Wire Wire Line
	3500 3000 3700 3000
Wire Wire Line
	3700 3000 3700 2900
Wire Wire Line
	3700 2900 3900 2900
$Comp
L power:GND #PWR0124
U 1 1 5D00CC83
P 4200 3500
F 0 "#PWR0124" H 4200 3250 50  0001 C CNN
F 1 "GND" H 4205 3327 50  0000 C CNN
F 2 "" H 4200 3500 50  0001 C CNN
F 3 "" H 4200 3500 50  0001 C CNN
	1    4200 3500
	1    0    0    -1  
$EndComp
$Comp
L Device:L L301
U 1 1 5D00D3B5
P 4450 3100
F 0 "L301" V 4640 3100 50  0000 C CNN
F 1 "150u" V 4549 3100 50  0000 C CNN
F 2 "IoDachlukeV2:L_Bourns_SDR1307" H 4450 3100 50  0001 C CNN
F 3 "https://www.mouser.at/datasheet/2/54/DR1307A-1391562.pdf" H 4450 3100 50  0001 C CNN
	1    4450 3100
	0    -1   -1   0   
$EndComp
$Comp
L Device:C C310
U 1 1 5D00D88E
P 5100 3350
F 0 "C310" H 5000 3500 50  0000 L CNN
F 1 "100n" H 5000 3250 50  0000 L CNN
F 2 "Capacitor_SMD:C_0603_1608Metric_Pad1.05x0.95mm_HandSolder" H 5138 3200 50  0001 C CNN
F 3 "~" H 5100 3350 50  0001 C CNN
	1    5100 3350
	1    0    0    -1  
$EndComp
$Comp
L Device:C C311
U 1 1 5D00DEF4
P 5300 3350
F 0 "C311" H 5200 3500 50  0000 L CNN
F 1 "22u" H 5250 3250 50  0000 L CNN
F 2 "Capacitor_SMD:C_0805_2012Metric_Pad1.15x1.40mm_HandSolder" H 5338 3200 50  0001 C CNN
F 3 "~" H 5300 3350 50  0001 C CNN
	1    5300 3350
	1    0    0    -1  
$EndComp
Wire Wire Line
	5500 3200 5500 3100
Wire Wire Line
	5500 3100 5300 3100
Wire Wire Line
	5100 3200 5100 3100
Connection ~ 5100 3100
Wire Wire Line
	5300 3200 5300 3100
Connection ~ 5300 3100
Wire Wire Line
	5300 3100 5100 3100
$Comp
L power:GND #PWR0125
U 1 1 5D00E562
P 5100 3500
F 0 "#PWR0125" H 5100 3250 50  0001 C CNN
F 1 "GND" H 5105 3327 50  0000 C CNN
F 2 "" H 5100 3500 50  0001 C CNN
F 3 "" H 5100 3500 50  0001 C CNN
	1    5100 3500
	1    0    0    -1  
$EndComp
$Comp
L power:GND #PWR0126
U 1 1 5D00E8D3
P 5300 3500
F 0 "#PWR0126" H 5300 3250 50  0001 C CNN
F 1 "GND" H 5305 3327 50  0000 C CNN
F 2 "" H 5300 3500 50  0001 C CNN
F 3 "" H 5300 3500 50  0001 C CNN
	1    5300 3500
	1    0    0    -1  
$EndComp
$Comp
L power:GND #PWR0127
U 1 1 5D00EAB8
P 5500 3500
F 0 "#PWR0127" H 5500 3250 50  0001 C CNN
F 1 "GND" H 5505 3327 50  0000 C CNN
F 2 "" H 5500 3500 50  0001 C CNN
F 3 "" H 5500 3500 50  0001 C CNN
	1    5500 3500
	1    0    0    -1  
$EndComp
$Comp
L Device:R R310
U 1 1 5D00F252
P 4700 3350
F 0 "R310" H 4600 3500 50  0000 L CNN
F 1 "82k" V 4700 3300 50  0000 L CNN
F 2 "Resistor_SMD:R_0603_1608Metric_Pad1.05x0.95mm_HandSolder" V 4630 3350 50  0001 C CNN
F 3 "~" H 4700 3350 50  0001 C CNN
	1    4700 3350
	1    0    0    -1  
$EndComp
Wire Wire Line
	4600 3100 4700 3100
Wire Wire Line
	4700 3200 4700 3100
Connection ~ 4700 3100
$Comp
L Device:R R311
U 1 1 5D0110AB
P 4700 4150
F 0 "R311" H 4770 4196 50  0000 L CNN
F 1 "5k6" H 4770 4105 50  0000 L CNN
F 2 "Resistor_SMD:R_0603_1608Metric_Pad1.05x0.95mm_HandSolder" V 4630 4150 50  0001 C CNN
F 3 "~" H 4700 4150 50  0001 C CNN
	1    4700 4150
	1    0    0    -1  
$EndComp
$Comp
L power:GND #PWR0128
U 1 1 5D011808
P 4700 4300
F 0 "#PWR0128" H 4700 4050 50  0001 C CNN
F 1 "GND" H 4705 4127 50  0000 C CNN
F 2 "" H 4700 4300 50  0001 C CNN
F 3 "" H 4700 4300 50  0001 C CNN
	1    4700 4300
	1    0    0    -1  
$EndComp
Wire Wire Line
	4700 4000 4700 3900
Wire Wire Line
	4800 3500 4800 3600
Wire Wire Line
	4800 3600 4700 3600
Connection ~ 4700 3600
Wire Wire Line
	4700 3600 4700 3500
Wire Wire Line
	4700 3100 4800 3100
Wire Wire Line
	4800 3200 4800 3100
Connection ~ 4800 3100
Wire Wire Line
	4800 3100 4900 3100
$Comp
L Device:R R313
U 1 1 5D0121B3
P 4900 3350
F 0 "R313" H 4800 3500 50  0000 L CNN
F 1 "1k" V 4900 3300 50  0000 L CNN
F 2 "Resistor_SMD:R_0603_1608Metric_Pad1.05x0.95mm_HandSolder" V 4830 3350 50  0001 C CNN
F 3 "~" H 4900 3350 50  0001 C CNN
	1    4900 3350
	1    0    0    -1  
$EndComp
$Comp
L Device:C C309
U 1 1 5D0122C9
P 4900 3650
F 0 "C309" H 4800 3750 50  0000 L CNN
F 1 "2n2" H 4800 3550 50  0000 L CNN
F 2 "Capacitor_SMD:C_0603_1608Metric_Pad1.05x0.95mm_HandSolder" H 4938 3500 50  0001 C CNN
F 3 "~" H 4900 3650 50  0001 C CNN
	1    4900 3650
	1    0    0    -1  
$EndComp
Wire Wire Line
	4900 3800 4900 3900
Wire Wire Line
	4900 3900 4700 3900
Connection ~ 4700 3900
Wire Wire Line
	4700 3900 4700 3600
Wire Wire Line
	4100 4400 4500 4400
Wire Wire Line
	4500 4400 4500 3900
Wire Wire Line
	4500 3900 4700 3900
Connection ~ 4100 4400
Wire Wire Line
	4900 3200 4900 3100
Connection ~ 4900 3100
Wire Wire Line
	4900 3100 5100 3100
$Comp
L Device:R R312
U 1 1 5D00FA12
P 4800 3350
F 0 "R312" H 4800 3500 50  0000 R CNN
F 1 "120k" V 4800 3450 50  0000 R CNN
F 2 "Resistor_SMD:R_0603_1608Metric_Pad1.05x0.95mm_HandSolder" V 4730 3350 50  0001 C CNN
F 3 "~" H 4800 3350 50  0001 C CNN
	1    4800 3350
	1    0    0    -1  
$EndComp
$Comp
L Device:R R307
U 1 1 5D01B3E8
P 2200 3800
F 0 "R307" H 2200 3650 50  0000 L CNN
F 1 "10k" V 2200 3700 50  0000 L CNN
F 2 "Resistor_SMD:R_0603_1608Metric_Pad1.05x0.95mm_HandSolder" V 2130 3800 50  0001 C CNN
F 3 "~" H 2200 3800 50  0001 C CNN
	1    2200 3800
	-1   0    0    1   
$EndComp
Wire Wire Line
	2200 3650 2200 3500
Wire Wire Line
	2200 3500 2400 3500
Wire Wire Line
	2400 3200 2100 3200
Wire Wire Line
	2100 3200 2100 3650
$Comp
L Device:R R306
U 1 1 5D01C7E1
P 2100 3800
F 0 "R306" H 2100 3650 50  0000 L CNN
F 1 "22k" V 2100 3700 50  0000 L CNN
F 2 "Resistor_SMD:R_0603_1608Metric_Pad1.05x0.95mm_HandSolder" V 2030 3800 50  0001 C CNN
F 3 "~" H 2100 3800 50  0001 C CNN
	1    2100 3800
	-1   0    0    1   
$EndComp
$Comp
L power:GND #PWR0129
U 1 1 5D01CB8D
P 2200 3950
F 0 "#PWR0129" H 2200 3700 50  0001 C CNN
F 1 "GND" H 2205 3777 50  0000 C CNN
F 2 "" H 2200 3950 50  0001 C CNN
F 3 "" H 2200 3950 50  0001 C CNN
	1    2200 3950
	1    0    0    -1  
$EndComp
$Comp
L power:GND #PWR0130
U 1 1 5D01CF91
P 2100 3950
F 0 "#PWR0130" H 2100 3700 50  0001 C CNN
F 1 "GND" H 2105 3777 50  0000 C CNN
F 2 "" H 2100 3950 50  0001 C CNN
F 3 "" H 2100 3950 50  0001 C CNN
	1    2100 3950
	1    0    0    -1  
$EndComp
$Comp
L Device:C C302
U 1 1 5D01D21F
P 1950 3800
F 0 "C302" H 1850 3950 50  0000 L CNN
F 1 "220n" H 1850 3700 50  0000 L CNN
F 2 "Capacitor_SMD:C_0603_1608Metric_Pad1.05x0.95mm_HandSolder" H 1988 3650 50  0001 C CNN
F 3 "~" H 1950 3800 50  0001 C CNN
	1    1950 3800
	1    0    0    -1  
$EndComp
Wire Wire Line
	1950 3650 1950 3300
Wire Wire Line
	1950 3300 2400 3300
$Comp
L power:GND #PWR0131
U 1 1 5D01DB1F
P 1950 3950
F 0 "#PWR0131" H 1950 3700 50  0001 C CNN
F 1 "GND" H 1955 3777 50  0000 C CNN
F 2 "" H 1950 3950 50  0001 C CNN
F 3 "" H 1950 3950 50  0001 C CNN
	1    1950 3950
	1    0    0    -1  
$EndComp
$Comp
L Device:R R304
U 1 1 5D01EA9B
P 1800 3800
F 0 "R304" H 1800 3650 50  0000 L CNN
F 1 "10k" V 1800 3700 50  0000 L CNN
F 2 "Resistor_SMD:R_0603_1608Metric_Pad1.05x0.95mm_HandSolder" V 1730 3800 50  0001 C CNN
F 3 "~" H 1800 3800 50  0001 C CNN
	1    1800 3800
	-1   0    0    1   
$EndComp
$Comp
L power:GND #PWR0132
U 1 1 5D01F19C
P 1800 3950
F 0 "#PWR0132" H 1800 3700 50  0001 C CNN
F 1 "GND" H 1805 3777 50  0000 C CNN
F 2 "" H 1800 3950 50  0001 C CNN
F 3 "" H 1800 3950 50  0001 C CNN
	1    1800 3950
	1    0    0    -1  
$EndComp
Wire Wire Line
	1800 3650 1800 3100
Wire Wire Line
	1800 3100 2400 3100
$Comp
L Device:R R302
U 1 1 5D01F65C
P 1600 3800
F 0 "R302" H 1600 3650 50  0000 L CNN
F 1 "10k" V 1600 3700 50  0000 L CNN
F 2 "Resistor_SMD:R_0603_1608Metric_Pad1.05x0.95mm_HandSolder" V 1530 3800 50  0001 C CNN
F 3 "~" H 1600 3800 50  0001 C CNN
	1    1600 3800
	-1   0    0    1   
$EndComp
$Comp
L power:GND #PWR0133
U 1 1 5D01F667
P 1600 3950
F 0 "#PWR0133" H 1600 3700 50  0001 C CNN
F 1 "GND" H 1605 3777 50  0000 C CNN
F 2 "" H 1600 3950 50  0001 C CNN
F 3 "" H 1600 3950 50  0001 C CNN
	1    1600 3950
	1    0    0    -1  
$EndComp
$Comp
L Device:R R301
U 1 1 5D01FF2D
P 1600 1850
F 0 "R301" H 1600 1700 50  0000 L CNN
F 1 "100k" V 1600 1750 50  0000 L CNN
F 2 "Resistor_SMD:R_1206_3216Metric" V 1530 1850 50  0001 C CNN
F 3 "~" H 1600 1850 50  0001 C CNN
	1    1600 1850
	-1   0    0    1   
$EndComp
Wire Wire Line
	1600 2000 1600 3400
Wire Wire Line
	1600 3400 2400 3400
Connection ~ 1600 3400
Wire Wire Line
	1600 3400 1600 3650
Wire Wire Line
	1600 1700 1600 1600
Wire Wire Line
	4200 1600 4200 2000
Wire Wire Line
	1600 1600 1600 1500
Connection ~ 1600 1600
$Comp
L power:VBUS #PWR0136
U 1 1 5D0233F8
P 1600 1500
F 0 "#PWR0136" H 1600 1350 50  0001 C CNN
F 1 "VBUS" H 1615 1673 50  0000 C CNN
F 2 "" H 1600 1500 50  0001 C CNN
F 3 "" H 1600 1500 50  0001 C CNN
	1    1600 1500
	1    0    0    -1  
$EndComp
$Comp
L power:+12V #PWR0137
U 1 1 5D031F02
P 5500 3000
F 0 "#PWR0137" H 5500 2850 50  0001 C CNN
F 1 "+12V" H 5515 3173 50  0000 C CNN
F 2 "" H 5500 3000 50  0001 C CNN
F 3 "" H 5500 3000 50  0001 C CNN
	1    5500 3000
	1    0    0    -1  
$EndComp
Wire Wire Line
	5500 3000 5500 3100
Connection ~ 5500 3100
$Comp
L power:GND #PWR0303
U 1 1 5D0EFFD8
P 4600 2600
F 0 "#PWR0303" H 4600 2350 50  0001 C CNN
F 1 "GND" V 4605 2472 50  0000 R CNN
F 2 "" H 4600 2600 50  0001 C CNN
F 3 "" H 4600 2600 50  0001 C CNN
	1    4600 2600
	0    -1   -1   0   
$EndComp
Wire Wire Line
	4300 2600 4200 2600
Connection ~ 4200 2600
Wire Wire Line
	4200 2600 4200 2700
$Comp
L power:GND #PWR0302
U 1 1 5D0F0533
P 4600 2300
F 0 "#PWR0302" H 4600 2050 50  0001 C CNN
F 1 "GND" V 4605 2172 50  0000 R CNN
F 2 "" H 4600 2300 50  0001 C CNN
F 3 "" H 4600 2300 50  0001 C CNN
	1    4600 2300
	0    -1   -1   0   
$EndComp
Wire Wire Line
	4300 2300 4200 2300
Connection ~ 4200 2300
Wire Wire Line
	4200 2300 4200 2600
$Comp
L Device:C C307
U 1 1 5D0F7BB4
P 4450 2300
F 0 "C307" V 4300 2150 50  0000 L CNN
F 1 "220n" V 4300 2350 50  0000 L CNN
F 2 "Capacitor_SMD:C_1210_3225Metric_Pad1.42x2.65mm_HandSolder" H 4488 2150 50  0001 C CNN
F 3 "~" H 4450 2300 50  0001 C CNN
	1    4450 2300
	0    1    1    0   
$EndComp
$Comp
L Device:C C308
U 1 1 5D0F8374
P 4450 2600
F 0 "C308" V 4300 2450 50  0000 L CNN
F 1 "220n" V 4300 2650 50  0000 L CNN
F 2 "Capacitor_SMD:C_1210_3225Metric_Pad1.42x2.65mm_HandSolder" H 4488 2450 50  0001 C CNN
F 3 "~" H 4450 2600 50  0001 C CNN
	1    4450 2600
	0    1    1    0   
$EndComp
$Comp
L Diode:BAT54S D302
U 1 1 5D11B470
P 3200 2300
F 0 "D302" V 2950 2000 50  0000 L CNN
F 1 "MMBD7000HS-7-F" V 3000 2400 50  0000 L CNN
F 2 "Package_TO_SOT_SMD:SOT-23" H 3275 2425 50  0001 L CNN
F 3 "https://www.mouser.at/datasheet/2/115/ds31782-65062.pdf" H 3080 2300 50  0001 C CNN
	1    3200 2300
	0    1    1    0   
$EndComp
$Comp
L Device:C Cboot301
U 1 1 5D123846
P 3350 2700
F 0 "Cboot301" V 3150 3000 50  0000 R CNN
F 1 "470n" V 3250 2950 50  0000 R CNN
F 2 "Capacitor_SMD:C_0603_1608Metric_Pad1.05x0.95mm_HandSolder" H 3388 2550 50  0001 C CNN
F 3 "~" H 3350 2700 50  0001 C CNN
	1    3350 2700
	0    1    1    0   
$EndComp
$Comp
L Device:CP C306
U 1 1 5D12E291
P 4450 2000
F 0 "C306" V 4650 2050 50  0000 L CNN
F 1 "39u 160VDC" V 4650 1500 50  0000 L CNN
F 2 "Capacitor_SMD:C_Elec_10x10.2" H 4488 1850 50  0001 C CNN
F 3 "~" H 4450 2000 50  0001 C CNN
	1    4450 2000
	0    -1   -1   0   
$EndComp
Wire Wire Line
	4300 2000 4200 2000
Connection ~ 4200 2000
Wire Wire Line
	4200 2000 4200 2300
$Comp
L power:GND #PWR0301
U 1 1 5D130C26
P 4600 2000
F 0 "#PWR0301" H 4600 1750 50  0001 C CNN
F 1 "GND" V 4605 1872 50  0000 R CNN
F 2 "" H 4600 2000 50  0001 C CNN
F 3 "" H 4600 2000 50  0001 C CNN
	1    4600 2000
	0    -1   -1   0   
$EndComp
$Comp
L Device:CP C312
U 1 1 5D00E320
P 5500 3350
F 0 "C312" H 5400 3500 50  0000 L CNN
F 1 "100u" H 5400 3250 50  0000 L CNN
F 2 "Capacitor_SMD:CP_Elec_8x6.5" H 5538 3200 50  0001 C CNN
F 3 "~" H 5500 3350 50  0001 C CNN
	1    5500 3350
	1    0    0    -1  
$EndComp
Wire Wire Line
	4000 3100 4200 3100
$Comp
L Transistor_FET:CSD19537Q3 Q302
U 1 1 5D22C8AF
P 4100 2900
F 0 "Q302" H 4306 2946 50  0000 L CNN
F 1 "CSD19538Q3A" H 4306 2855 50  0000 L CNN
F 2 "Package_SON:VSON-8_3.3x3.3mm_P0.65mm_NexFET" H 4300 2825 50  0001 L CIN
F 3 "http://www.ti.com/lit/ds/symlink/csd19537q3.pdf" V 4100 2900 50  0001 L CNN
	1    4100 2900
	1    0    0    -1  
$EndComp
Connection ~ 4200 3100
Wire Wire Line
	4200 3100 4300 3100
$Comp
L Transistor_FET:CSD19537Q3 Q303
U 1 1 5D22D6D3
P 4100 3300
F 0 "Q303" H 4306 3346 50  0000 L CNN
F 1 "CSD19538Q3A" H 4306 3255 50  0000 L CNN
F 2 "Package_SON:VSON-8_3.3x3.3mm_P0.65mm_NexFET" H 4300 3225 50  0001 L CIN
F 3 "http://www.ti.com/lit/ds/symlink/csd19537q3.pdf" V 4100 3300 50  0001 L CNN
	1    4100 3300
	1    0    0    -1  
$EndComp
Wire Wire Line
	3600 3400 3600 3900
Wire Wire Line
	1600 1600 2200 1600
$Comp
L IoDachlukeV2:ZXTR2012 Q301
U 1 1 5D0EC5F0
P 2150 1950
F 0 "Q301" H 2290 1996 50  0000 L CNN
F 1 "ZXTR2012" H 2290 1905 50  0000 L CNN
F 2 "Package_TO_SOT_SMD:SOT-89-3_Handsoldering" H 2150 1950 50  0001 C CNN
F 3 "https://www.mouser.de/datasheet/2/115/ZXTR2012Z-476052.pdf" H 2150 1950 50  0001 C CNN
	1    2150 1950
	1    0    0    -1  
$EndComp
Wire Wire Line
	2200 2150 2200 2300
Connection ~ 2200 2300
Wire Wire Line
	2200 1750 2200 1600
Connection ~ 2200 1600
Wire Wire Line
	2200 1600 4200 1600
$Comp
L power:GND #PWR0305
U 1 1 5D1018E7
P 1800 1950
F 0 "#PWR0305" H 1800 1700 50  0001 C CNN
F 1 "GND" H 1805 1777 50  0000 C CNN
F 2 "" H 1800 1950 50  0001 C CNN
F 3 "" H 1800 1950 50  0001 C CNN
	1    1800 1950
	1    0    0    -1  
$EndComp
$EndSCHEMATC
