(module "Schurter_UMK_250_withFH" (layer F.Cu) (tedit 5D06A161)
  (fp_text reference "REF**" (at 0 0.5) (layer F.SilkS)
    (effects (font (size 1 1) (thickness 0.15)))
  )
  (fp_text value "Schurter_UMK_250_withFH" (at 0 -0.5) (layer F.Fab)
    (effects (font (size 1 1) (thickness 0.15)))
  )
  (fp_line (start 6.1 2.7) (end -6.1 2.7) (layer F.CrtYd) (width 0.12))
  (fp_line (start -6.1 2.7) (end -6.1 -2.7) (layer F.CrtYd) (width 0.12))
  (fp_line (start 6.1 -2.7) (end -6.1 -2.7) (layer F.CrtYd) (width 0.12))
  (fp_line (start 6.1 2.7) (end 6.1 -2.7) (layer F.CrtYd) (width 0.12))
  (fp_line (start -6.1 2.7) (end -6.1 -2.7) (layer F.SilkS) (width 0.12))
  (fp_line (start 6.1 -2.7) (end -6.1 -2.7) (layer F.SilkS) (width 0.12))
  (fp_line (start 6.1 2.7) (end 6.1 -2.7) (layer F.SilkS) (width 0.12))
  (fp_line (start 6.1 2.7) (end -6.1 2.7) (layer F.SilkS) (width 0.12))
  (pad "1" smd roundrect (at -4.25 0) (size 3 4.75) (layers "F.Cu" "F.Paste" "F.Mask") (roundrect_rratio 0.25))
  (pad "2" smd roundrect (at 4.25 0) (size 3 4.75) (layers "F.Cu" "F.Paste" "F.Mask") (roundrect_rratio 0.25))
  (model "${KIPRJMOD}/UMZ250.STEP"
    (offset (xyz 0.65 -0.9 1.7))
    (scale (xyz 1 1 1))
    (rotate (xyz -90 0 90))
  )
)
